/* XPM */
static char * lcad_icon12_xpm[] = {
"50 50 734 2",
"  	c None",
". 	c #FFFFFF",
"+ 	c #FBFCFE",
"@ 	c #F7F8FD",
"# 	c #F2F3FD",
"$ 	c #EEEFFC",
"% 	c #EAEBFC",
"& 	c #E6E8FB",
"* 	c #E2E4FA",
"= 	c #DEE1FA",
"- 	c #DADDF9",
"; 	c #D7DAF9",
"> 	c #D4D7F8",
", 	c #D1D4F8",
"' 	c #CED2F8",
") 	c #CBCFF7",
"! 	c #C9CDF7",
"~ 	c #C6CBF7",
"{ 	c #C4C9F6",
"] 	c #C3C8F6",
"^ 	c #C1C6F6",
"/ 	c #C0C5F6",
"( 	c #BFC4F6",
"_ 	c #BFC4F5",
": 	c #BEC4F5",
"< 	c #BEC3F5",
"[ 	c #BFC5F6",
"} 	c #C5C9F6",
"| 	c #C7CBF7",
"1 	c #D1D5F8",
"2 	c #D4D7F9",
"3 	c #EAECFC",
"4 	c #EEF0FC",
"5 	c #F3F4FD",
"6 	c #FCFCFE",
"7 	c #FEFEFF",
"8 	c #FBFBFE",
"9 	c #F6F7FD",
"0 	c #F1F2FD",
"a 	c #EDEEFC",
"b 	c #E8EAFB",
"c 	c #E4E6FB",
"d 	c #E0E2FA",
"e 	c #DCDEFA",
"f 	c #D8DBF9",
"g 	c #D4D8F9",
"h 	c #CDD1F8",
"i 	c #CACEF7",
"j 	c #C7CCF7",
"k 	c #C2C7F6",
"l 	c #BCC1F5",
"m 	c #BAC0F5",
"n 	c #B9BFF5",
"o 	c #B8BEF5",
"p 	c #B7BDF4",
"q 	c #CACFF7",
"r 	c #DCDFFA",
"s 	c #E0E3FA",
"t 	c #E9EAFB",
"u 	c #EDEFFC",
"v 	c #F7F7FD",
"w 	c #FEFFFF",
"x 	c #F5F6FD",
"y 	c #ECEDFC",
"z 	c #E7E9FB",
"A 	c #E3E5FB",
"B 	c #D6D9F9",
"C 	c #D2D5F8",
"D 	c #C4C8F6",
"E 	c #BBC1F5",
"F 	c #B5BBF4",
"G 	c #B3BAF4",
"H 	c #B2B8F4",
"I 	c #B1B7F4",
"J 	c #B0B7F4",
"K 	c #B0B6F3",
"L 	c #D2D6F8",
"M 	c #F6F6FD",
"N 	c #F0F2FD",
"O 	c #EBEDFC",
"P 	c #DDE0FA",
"Q 	c #D9DCF9",
"R 	c #D0D4F8",
"S 	c #CCD0F7",
"T 	c #C8CCF7",
"U 	c #C0C6F6",
"V 	c #BDC3F5",
"W 	c #B4BAF4",
"X 	c #AEB5F3",
"Y 	c #ACB3F3",
"Z 	c #ABB2F3",
"` 	c #AAB1F3",
" .	c #A9B0F3",
"..	c #A9B0F2",
"+.	c #C8CDF7",
"@.	c #ECEEFC",
"#.	c #DDDFFA",
"$.	c #D3D7F8",
"%.	c #B0B7F3",
"&.	c #AEB4F3",
"*.	c #A7AEF2",
"=.	c #A5ADF2",
"-.	c #A4ABF2",
";.	c #A3AAF2",
">.	c #A2AAF1",
",.	c #A2A9F1",
"'.	c #A1A9F1",
").	c #CFD3F8",
"!.	c #D3D6F8",
"~.	c #CDD2F8",
"{.	c #ADB4EF",
"].	c #AEB4D1",
"^.	c #A7AEF1",
"/.	c #A4ACF2",
"(.	c #A0A8F1",
"_.	c #9EA6F1",
":.	c #9DA5F1",
"<.	c #9CA4F1",
"[.	c #9BA3F0",
"}.	c #9AA3F0",
"|.	c #9AA2F0",
"1.	c #A5ACF2",
"2.	c #ADB4F3",
"3.	c #BCC2F5",
"4.	c #C5CAF6",
"5.	c #C9CEF7",
"6.	c #E8E9FB",
"7.	c #CDD1F7",
"8.	c #B6BCF4",
"9.	c #A3ABF2",
"0.	c #99A1F0",
"a.	c #97A0F0",
"b.	c #969EF0",
"c.	c #959DF0",
"d.	c #949DEF",
"e.	c #939CEF",
"f.	c #969FF0",
"g.	c #99A2F0",
"h.	c #9BA4F1",
"i.	c #A1A8F1",
"j.	c #BBC0F5",
"k.	c #E9EBFB",
"l.	c #DEE0FA",
"m.	c #A8AFF2",
"n.	c #949DF0",
"o.	c #929BEF",
"p.	c #9099EF",
"q.	c #8F98EF",
"r.	c #8D97EF",
"s.	c #8D96EE",
"t.	c #8C95EE",
"u.	c #8C96EE",
"v.	c #909AEF",
"w.	c #B1B7F3",
"x.	c #D8DCF9",
"y.	c #E5E7FB",
"z.	c #DFE1FA",
"A.	c #AFB6F3",
"B.	c #ABB1F3",
"C.	c #A6ADF2",
"D.	c #979FF0",
"E.	c #8E97EF",
"F.	c #8B95EE",
"G.	c #8993EE",
"H.	c #8891EE",
"I.	c #8690EE",
"J.	c #858FED",
"K.	c #8892EE",
"L.	c #8A93EE",
"M.	c #919AEF",
"N.	c #949CEF",
"O.	c #A6AEF2",
"P.	c #ACB1F1",
"Q.	c #DBDDF9",
"R.	c #D5D8F9",
"S.	c #AFB5F3",
"T.	c #98A0F0",
"U.	c #8D96EF",
"V.	c #8791EE",
"W.	c #828DED",
"X.	c #818BED",
"Y.	c #7F8AED",
"Z.	c #7E89EC",
"`.	c #7E88EC",
" +	c #7D88EC",
".+	c #838DED",
"++	c #8A94EE",
"@+	c #98A1F0",
"#+	c #9DA3EF",
"$+	c #D15477",
"%+	c #F4141C",
"&+	c #E13F57",
"*+	c #B2AEE9",
"=+	c #D6DAF9",
"-+	c #BABFF5",
";+	c #9FA7F1",
">+	c #8790EE",
",+	c #808BED",
"'+	c #7C86EC",
")+	c #7A85EC",
"!+	c #7883EC",
"~+	c #7782EB",
"{+	c #7681EB",
"]+	c #848EED",
"^+	c #8E98EF",
"/+	c #AA82C4",
"(+	c #FE0203",
"_+	c #FF0000",
":+	c #CA6E98",
"<+	c #B4BBF4",
"[+	c #959EF0",
"}+	c #7580EB",
"|+	c #737EEB",
"1+	c #717DEB",
"2+	c #707CEA",
"3+	c #6F7BEA",
"4+	c #8992EC",
"5+	c #9F9DCB",
"6+	c #C98E79",
"7+	c #FE0402",
"8+	c #FF0101",
"9+	c #C4719F",
"0+	c #B5BCF4",
"a+	c #D5D9F9",
"b+	c #BDC2F5",
"c+	c #828CED",
"d+	c #737FEB",
"e+	c #6E7AEA",
"f+	c #6C78EA",
"g+	c #6A76EA",
"h+	c #6975E9",
"i+	c #6875E9",
"j+	c #6874E9",
"k+	c #717CEA",
"l+	c #747FEB",
"m+	c #8289E0",
"n+	c #A79BAA",
"o+	c #CBAC71",
"p+	c #DBB356",
"q+	c #DBB355",
"r+	c #E96C33",
"s+	c #E72535",
"t+	c #CF4E73",
"u+	c #A2A5EC",
"v+	c #B1B8F4",
"w+	c #CBD0F7",
"x+	c #B3B9F4",
"y+	c #ADB3F3",
"z+	c #818CED",
"A+	c #7D87EC",
"B+	c #7480EB",
"C+	c #6D79EA",
"D+	c #6A76E9",
"E+	c #6774E9",
"F+	c #6572E9",
"G+	c #6370E9",
"H+	c #626FE8",
"I+	c #616EE8",
"J+	c #8485CA",
"K+	c #B59F8B",
"L+	c #D7B15B",
"M+	c #D1AF68",
"N+	c #919AEE",
"O+	c #A9B0F1",
"P+	c #7C87EC",
"Q+	c #727EEB",
"R+	c #6773E9",
"S+	c #606DE8",
"T+	c #5E6BE8",
"U+	c #5C6AE8",
"V+	c #5B68E7",
"W+	c #5A67E7",
"X+	c #747AD8",
"Y+	c #B69F86",
"Z+	c #BCA68E",
"`+	c #A5ACF1",
" @	c #727DEB",
".@	c #6471E9",
"+@	c #5D6AE8",
"@@	c #5765E7",
"#@	c #5563E7",
"$@	c #5462E6",
"%@	c #5361E6",
"&@	c #5261E6",
"*@	c #5A68E7",
"=@	c #6571E8",
"-@	c #8C88BC",
";@	c #D3AF60",
">@	c #A49BB3",
",@	c #7783EB",
"'@	c #5E6CE8",
")@	c #5764E7",
"!@	c #505FE6",
"~@	c #4E5DE6",
"{@	c #4D5BE5",
"]@	c #4C5AE5",
"^@	c #4B5AE5",
"/@	c #515FE6",
"(@	c #5362E6",
"_@	c #606DE7",
":@	c #9F929F",
"<@	c #DAB257",
"[@	c #CAAA6C",
"}@	c #D0AD65",
"|@	c #8A8ED8",
"1@	c #8F99EF",
"2@	c #A8B0F2",
"3@	c #B9BEF5",
"4@	c #7F89ED",
"5@	c #7984EC",
"6@	c #636FE8",
"7@	c #5966E7",
"8@	c #4A59E5",
"9@	c #4756E5",
"0@	c #4655E4",
"a@	c #4454E4",
"b@	c #4453E4",
"c@	c #4757E5",
"d@	c #4D5CE5",
"e@	c #5C67E0",
"f@	c #B29B83",
"g@	c #C3A573",
"h@	c #727BDC",
"i@	c #A5979F",
"j@	c #CDAC69",
"k@	c #7A85EA",
"l@	c #B2B9F4",
"m@	c #7B86EC",
"n@	c #4F5DE6",
"o@	c #4656E5",
"p@	c #4353E4",
"q@	c #4150E4",
"r@	c #3E4EE3",
"s@	c #3D4DE3",
"t@	c #3F4EE3",
"u@	c #5F65D1",
"v@	c #C1A370",
"w@	c #B89E7D",
"x@	c #656FDF",
"y@	c #767DD8",
"z@	c #AF9C92",
"A@	c #7581EB",
"B@	c #A2AAF2",
"C@	c #7883EB",
"D@	c #6B77EA",
"E@	c #5F6CE8",
"F@	c #5967E7",
"G@	c #4958E5",
"H@	c #4554E4",
"I@	c #4050E4",
"J@	c #3A4AE3",
"K@	c #3848E2",
"L@	c #3647E2",
"M@	c #3646E2",
"N@	c #6A6ABE",
"O@	c #CDAA62",
"P@	c #AA9588",
"Q@	c #5864E2",
"R@	c #5F6DE8",
"S@	c #6672E9",
"T@	c #717BE4",
"U@	c #7F89EC",
"V@	c #8992EE",
"W@	c #5B69E7",
"X@	c #4F5EE6",
"Y@	c #3F4FE3",
"Z@	c #3B4BE3",
"`@	c #3344E2",
" #	c #3142E1",
".#	c #2F40E1",
"+#	c #3445E1",
"@#	c #7E76A5",
"##	c #D7B158",
"$#	c #DAB356",
"%#	c #9A8A93",
"&#	c #4C5AE3",
"*#	c #505EE6",
"=#	c #5663E7",
"-#	c #5C69E8",
";#	c #808AED",
">#	c #6571E9",
",#	c #5865E7",
"'#	c #5160E6",
")#	c #4555E4",
"!#	c #3F4FE4",
"~#	c #3546E2",
"{#	c #3141E1",
"]#	c #2D3EE1",
"^#	c #2A3BE0",
"/#	c #283AE0",
"(#	c #2739E0",
"_#	c #3040DC",
":#	c #95848D",
"<#	c #DAB256",
"[#	c #867BA0",
"}#	c #4150E3",
"|#	c #5260E6",
"1#	c #5866E7",
"2#	c #4857E5",
"3#	c #4151E4",
"4#	c #3041E1",
"5#	c #2B3CE1",
"6#	c #2738E0",
"7#	c #2335E0",
"8#	c #2133DF",
"9#	c #2033DF",
"0#	c #3440D1",
"a#	c #AF9576",
"b#	c #D7B058",
"c#	c #726DAB",
"d#	c #3C4CE3",
"e#	c #4251E4",
"f#	c #6976E9",
"g#	c #3142E2",
"h#	c #2B3DE1",
"i#	c #2638E0",
"j#	c #1D2FDF",
"k#	c #1A2DDE",
"l#	c #4249C1",
"m#	c #C4A365",
"n#	c #D3AD5B",
"o#	c #5D5EB5",
"p#	c #2C3DE1",
"q#	c #3243E2",
"r#	c #4C5BE5",
"s#	c #606EE8",
"t#	c #838EED",
"u#	c #4252E4",
"v#	c #3545E2",
"w#	c #2E3FE1",
"x#	c #2839E0",
"y#	c #2134DF",
"z#	c #1C2EDE",
"A#	c #172ADE",
"B#	c #5A58AD",
"C#	c #D3AD5A",
"D#	c #CCA860",
"E#	c #484EBF",
"F#	c #2234DF",
"G#	c #4352E4",
"H#	c #6B78EA",
"I#	c #5664E7",
"J#	c #3343E2",
"K#	c #2537E0",
"L#	c #1E31DF",
"M#	c #1B2DDC",
"N#	c #7D7194",
"O#	c #C3A265",
"P#	c #353EC6",
"Q#	c #182BDE",
"R#	c #1F31DF",
"S#	c #2C3EE1",
"T#	c #ACB2F3",
"U#	c #3949E3",
"V#	c #2A39D5",
"W#	c #A28B7D",
"X#	c #B5986D",
"Y#	c #212FCC",
"Z#	c #0F22DD",
"`#	c #1629DE",
" $	c #2436E0",
".$	c #394AE3",
"+$	c #4149CA",
"@$	c #BD9E6B",
"#$	c #A98F75",
"$$	c #1424D1",
"%$	c #081CDC",
"&$	c #5F60B8",
"*$	c #CEAA5F",
"=$	c #9D887F",
"-$	c #1627D6",
";$	c #0A1EDC",
">$	c #0C20DC",
",$	c #1225DD",
"'$	c #7B85EC",
")$	c #3C4CE2",
"!$	c #8278A0",
"~$	c #D8B157",
"{$	c #91808A",
"]$	c #1A2CDB",
"^$	c #1326DD",
"/$	c #1125DD",
"($	c #162ADE",
"_$	c #1B2EDE",
":$	c #4A58DE",
"<$	c #A28E89",
"[$	c #837798",
"}$	c #2235DD",
"|$	c #1C2FDF",
"1$	c #192CDE",
"2$	c #2637E0",
"3$	c #A0A7F1",
"4$	c #A7AFF2",
"5$	c #707BEA",
"6$	c #5463E6",
"7$	c #5D66D6",
"8$	c #BCA073",
"9$	c #D9B257",
"0$	c #7A72A4",
"a$	c #2B3CE0",
"b$	c #2235DF",
"c$	c #2032DF",
"d$	c #2335DF",
"e$	c #2A3CE1",
"f$	c #8D97EE",
"g$	c #7577C6",
"h$	c #CDAB63",
"i$	c #D6B059",
"j$	c #706EB3",
"k$	c #24309D",
"l$	c #0B1036",
"m$	c #111859",
"n$	c #293BE0",
"o$	c #1A2696",
"p$	c #0A0E36",
"q$	c #1D2996",
"r$	c #9CA4F0",
"s$	c #9089B0",
"t$	c #D7B15A",
"u$	c #D2AE5D",
"v$	c #6C6DBE",
"w$	c #080B23",
"x$	c #010103",
"y$	c #2735B6",
"z$	c #2D3EDC",
"A$	c #080C29",
"B$	c #03040E",
"C$	c #3141DA",
"D$	c #3A4AE2",
"E$	c #3E4EDF",
"F$	c #4958E4",
"G$	c #4E5DE2",
"H$	c #5461E3",
"I$	c #5B69E6",
"J$	c #606CE4",
"K$	c #6874E8",
"L$	c #737EE7",
"M$	c #7C85EB",
"N$	c #818CEB",
"O$	c #8791EA",
"P$	c #8F98ED",
"Q$	c #969EEE",
"R$	c #9CA4EF",
"S$	c #848FED",
"T$	c #AB9995",
"U$	c #CEAB63",
"V$	c #6A6DCA",
"W$	c #151B4F",
"X$	c #0E1136",
"Y$	c #131950",
"Z$	c #222C90",
"`$	c #161D5E",
" %	c #3747DB",
".%	c #313EB8",
"+%	c #0D112F",
"@%	c #171D4F",
"#%	c #1A2053",
"$%	c #404CBD",
"%%	c #05060E",
"&%	c #181C3F",
"*%	c #5966DA",
"=%	c #1D2042",
"-%	c #5963C3",
";%	c #25294C",
">%	c #30345D",
",%	c #252844",
"'%	c #6E76C3",
")%	c #0A0B11",
"!%	c #2E314C",
"~%	c #292C41",
"{%	c #565A81",
"]%	c #838AE0",
"^%	c #BFA57E",
"/%	c #C8A86B",
"(%	c #6A71D3",
"_%	c #171D50",
":%	c #2C379D",
"<%	c #010205",
"[%	c #3543C5",
"}%	c #192060",
"|%	c #293397",
"1%	c #04050E",
"2%	c #3E4DDC",
"3%	c #141843",
"4%	c #191E50",
"5%	c #4553D7",
"6%	c #000001",
"7%	c #3B45A3",
"8%	c #272D66",
"9%	c #12152D",
"0%	c #606CE1",
"a%	c #3D4487",
"b%	c #4A529D",
"c%	c #050509",
"d%	c #6C76CF",
"e%	c #010101",
"f%	c #727AC7",
"g%	c #141522",
"h%	c #404468",
"i%	c #8C93D8",
"j%	c #7E84BB",
"k%	c #C6CAF7",
"l%	c #8B94EE",
"m%	c #9495D2",
"n%	c #CEAD6B",
"o%	c #C3A674",
"p%	c #6E76DA",
"q%	c #191F50",
"r%	c #4655E2",
"s%	c #0B0E25",
"t%	c #0C0F29",
"u%	c #323EAB",
"v%	c #2E3899",
"w%	c #4453DD",
"x%	c #0B0D22",
"y%	c #202761",
"z%	c #010102",
"A%	c #323982",
"B%	c #4F5AC3",
"C%	c #020204",
"D%	c #353B77",
"E%	c #5A64C1",
"F%	c #3C437B",
"G%	c #06060B",
"H%	c #4C528D",
"I%	c #404471",
"J%	c #7A83D1",
"K%	c #151622",
"L%	c #4B4F77",
"M%	c #A7A0BF",
"N%	c #D6B15E",
"O%	c #BEA47F",
"P%	c #737BE1",
"Q%	c #1C2150",
"R%	c #4D5CE6",
"S%	c #2E378A",
"T%	c #131639",
"U%	c #4B59E4",
"V%	c #323C9A",
"W%	c #4B59DE",
"X%	c #181C45",
"Y%	c #1C214E",
"Z%	c #505DD7",
"`%	c #434CA6",
" &	c #6370E8",
".&	c #1B1E3B",
"+&	c #171A32",
"@&	c #717CE9",
"#&	c #4F579C",
"$&	c #020305",
"%&	c #7881D9",
"&&	c #4D5177",
"*&	c #9FA6F0",
"=&	c #B8A9A7",
"-&	c #DAB357",
";&	c #B9A38A",
">&	c #7984E6",
",&	c #6470E9",
"'&	c #404AA6",
")&	c #11142E",
"!&	c #4753C4",
"~&	c #515EE0",
"{&	c #4956CE",
"]&	c #515FE3",
"^&	c #21275E",
"/&	c #06060F",
"(&	c #3A449E",
"_&	c #4752BC",
":&	c #131631",
"<&	c #222756",
"[&	c #262B5B",
"}&	c #6370E6",
"|&	c #474F99",
"1&	c #404684",
"2&	c #7983E6",
"3&	c #2C2F50",
"4&	c #1F2237",
"5&	c #373B5D",
"6&	c #676DA7",
"7&	c #11121A",
"8&	c #2B2D41",
"9&	c #8D94CF",
"0&	c #AAB0EC",
"a&	c #C7B08C",
"b&	c #B6A497",
"c&	c #6E79EA",
"d&	c #5D6AE2",
"e&	c #5966DE",
"f&	c #5A67E3",
"g&	c #5663DE",
"h&	c #5664DD",
"i&	c #5966E1",
"j&	c #5D6BE8",
"k&	c #5F6CE5",
"l&	c #6673E9",
"m&	c #717DE9",
"n&	c #7680E8",
"o&	c #8790E6",
"p&	c #8F98EB",
"q&	c #959DEC",
"r&	c #969EE7",
"s&	c #9CA3E8",
"t&	c #A6ADEE",
"u&	c #B9B0DD",
"v&	c #D3A972",
"w&	c #B3A5A8",
"x&	c #8A94ED",
"y&	c #CFD2F8",
"z&	c #CF8AAF",
"A&	c #F90F11",
"B&	c #FD0A05",
"C&	c #E87035",
"D&	c #DAB359",
"E&	c #B3A8B5",
"F&	c #7A84EC",
"G&	c #F0303C",
"H&	c #FA180C",
"I&	c #D9B25C",
"J&	c #B4AEC5",
"K&	c #7682EB",
"L&	c #E94D5F",
"M&	c #F23225",
"N&	c #B8B4D0",
"O&	c #8690ED",
"P&	c #CDBFE7",
"Q&	c #E26178",
"R&	c #E2586E",
"S&	c #BFABDC",
"T&	c #D7DBF9",
"U&	c #E1E4FA",
"V&	c #E7E8FB",
"W&	c #E1E3FA",
"X&	c #D8DAF9",
"Y&	c #C6CAF6",
". . . + @ # $ % & * = - ; > , ' ) ! ~ { ] ^ / ( _ : < : _ [ / ^ ] } | ! ) ' 1 2 ; - = * & 3 4 5 @ 6 ",
". 7 8 9 0 a b c d e f g , h i j { k / < l m n o p p p p p o n m l < / k } j q h 1 g f r s c t u # v ",
"w 8 x 0 y z A = - B C ' q | D ^ < E n p F G H I J K K K J I H G F p n E < ^ { j q ' L B - = A z a 0 ",
"8 M N O z * P Q g R S T { U V m p W H K X Y Z `  ....... .` Z Y X K H F p m V ^ { +.S R g Q P * z @.",
"9 0 y & * #.f $.' i ~ k < m p W %.&.Z ..*.=.-.;.>.,.'.,.>.;.-.=.*...Z X I W p m : k ~ q ).$.f P * z ",
"# @.z * #.f !.~.! { / l o W %.{.].^./.>.(._.:.<.[.}.|.}.[.<.:._.(.>.1.*.` 2.I W o 3.U 4.5.' !.f #.* ",
"u 6.* P f !.7.+.] ( m 8.H X ` *.9.(._.[.0.a.b.c.d.e.e.e.d.c.f.a.g.h._.i.-.*.` X H 8.j.( { ! ' !.f P ",
"k.A l.f !.h T ] < n F %.Y m./.(.:.|.a.n.o.p.q.r.s.t.t.u.s.r.q.v.o.c.a.|.:.i./.m.Y w.F n : D ! ' $.x.",
"y.z.Q $.' +.] < n W A.B.C.>._.|.D.e.p.E.F.G.H.I.J.J.J.J.J.I.K.L.F.E.M.N.D.}._.>.O.P.A.W n < D ! ' > ",
"s Q.R.).5.{ : n W S.` 1.(.<.T.d.p.U.L.V.J.W.X.Y.Z.`. +`.Z.Y.X..+J.V.++r.M.n.@+#+$+%+&+*+W n : { i ).",
"r =+, ) 4.( -+W A.` /.;+[.f.o.E.++>+.+,+`.'+)+!+~+~+{+~+~+!+)+'+Z.X.]+V.++^+o./+(+_+_+:+A.<+m / 4.) ",
"Q !.7.| ^ j.F K ` /.;+}.[+M.u.K.]+,+ +)+~+}+|+1+2+3+3+3+2+1+|+}+~+)+ +X.]+4+5+6+7+_+8+9+` K 0+E ^ j ",
"a+).! ] b+p I Z =.(.}.[+p.F.V.c+Z.)+~+d+2+e+f+g+h+i+j+i+h+g+f+e+k+l+~+m+n+o+p+q+r+s+t+u+C.Z v+p b+] ",
"C w+4.( n x+y+*.'.h.b.p.F.I.z+A+!+B+2+C+D+E+F+G+H+I+I+I+H+G+F+E+g+J+K+L+q+q+q+q+M+N+f.<.'.*.2.x+n [ ",
").+.k E F S.O+;.:.a.M.t.I.X.P+~+Q+e+g+R+G+S+T+U+V+W+W+W+V+U+T+I+G+X+Y+p+q+q+q+q+Z+t.o.a.:.9...A.8.l ",
"w+4.: o H Z `+;+0.e.s.V.c+P+~+ @C+i+.@S++@W+@@#@$@%@&@%@$@#@@@*@+@I+=@-@;@q+q+q+>@H.r.e.g.;+C.Y H o ",
"! k E F X m.,.[.[+q.G..+ +,@Q+C+j+G+'@*@)@%@!@~@{@]@^@]@{@~@/@(@@@V+_@:@<@[@}@q+|@.+G.1@[+<.>.2@S.F ",
"~ [ 3@H Z 1._.T.o.F.J.4@5@d+C+j+6@T+7@$@!@{@8@9@0@a@b@a@0@c@8@d@/@e@f@q+g@h@i@j@k@Y.J.t.o.@+;+=.Y l@",
"{ b+8.A...>.h.[+^+K.z+m@}+3+h+G+T+7@$@n@8@o@p@q@r@s@s@s@t@q@p@9@u@v@q+w@x@.@y@z@A@'+c+K.q.[+<.B@..K ",
"k j.W 2.C.;+0.o.F.J.Z.C@1+D@F+E@F@$@~@G@H@I@s@J@K@L@M@L@K@J@s@N@O@q+P@Q@W+R@S@T@ @!+U@J.t.o.g.(.*.&.",
"/ 3@H Z -.:.f.p.V@c+m@}+e+j+I+W@#@X@G@b@Y@Z@L@`@ #.#.#.# #+#@###$#%#&#*#=#-#H+i+3+A@P+.+G.p.D._./.Z ",
"< p %...>.[.n.r.I.;#5@Q+D@>#T+,#'#^@)#!#J@~#{#]#^#/#(#/#_#:#$#<#[#}#0@]@|#1#E@F+f+|+5@,+V.E.c.<.;.` ",
"b+8.S.m.i.|.o.t.J.`.~+2+h+H+W@#@~@2#3#Z@~#4#5#6#7#8#9#0#a#q+b#c#M@d#e#2#n@#@-#6@f#2+~+Z.J.t.e.|.'.m.",
"l F 2.O.;+@+M.++.+P+}+e+R+S+F@|#^@H@r@K@g#h#i#8#j#k#l#m#q+n#o#p#q#K@t@H@r#%@W+s#E+e+A@P+t#++o.0.(.*.",
"j.W y+=._.a.p.G.c+m@l+f+F+'@@@!@G@u#d#v#w#x#y#z#A#B#C#q+D#E#F#/#.#~#d#G#8@/@1#E@S@C+l+m@c+G.v.T.;+C.",
"m x+Y 1._.f.q.K.X.)+|+H#.@+@I#n@2#q@J@J#p#K#L#M#N#q+q+O#P#Q#R#K#S#`@J@3#2#X@)@T+>#f+d+)+z+V@p.D._.=.",
"m x+T#/.:.f.q.K.X.5@Q+D@.@+@=#~@9@I@U#q#5#7#V#W#q+q+X#Y#Z#`#j# $5#q#.$q@2#n@I#+@.@H#|+)+X.K.q.D._.1.",
"m x+T#/.:.f.q.K.,+5@Q+D@.@+@#@~@9@I@U#q#5#+$@$q+q+#$$$%$Z#`#j# $5#q#.$I@2#n@I#+@.@H#|+)+X.K.q.D._.1.",
"m x+Y 1._.f.q.K.X.)+|+H#.@+@I#n@2#q@J@J#&$*$q+q+=$-$;$>$,$Q#L#K#p#`@J@3#2#X@)@T+>#f+d+)+z+V@p.D._.1.",
"j.W Y =._.a.p.G.c+'$d+f+F+T+@@!@G@u#)$!$~$q+q+{$]$^$/$^$($_$y#x#w#~#d#G#8@/@,#E@S@C+l+m@c+G.p.T.;+C.",
"E <+2.C.;+T.M.L..+P+}+e+R+S+F@|#^@:$<$$#q+$#[$}$|$1$Q#1$|$9#2$h#g#K@r@H@]@%@F@S+E+e+A@P+.+++M.0.3$*.",
"b+8.X 4$(.g.o.F.]+ +~+5$h+H+W@6$7$8$q+q+9$0$a$i#b$9#c$9#d$i#e$4#~#Z@3#2#~@#@-#H+f#2+~+`.J.t.e.|.'.m.",
"< p K ..>.[.d.f$I.Y.5@ @D@.@T+g$h$q+q+i$j$k$l$m$n$(#6#o$p$q$4#v#J@!#)#^@|#1#'@F+f+Q+5@;#V.E.c.r$>. .",
"/ 3@H Z -.:.f.1@V@c+m@}+e+E+s$t$q+q+u$v$Y@J@w$x$y$w#z$A$B$C$L@D$E$b@F$G$H$I$J$K$e+L$M$N$O$P$Q$R$/.Z ",
"^ j.W 2.C.;+@+o.F.S$Z.C@L$T$p+q+q+U$V$G@b@I@W$X$Y$~#Z$`$B$ %.%+%@%#%$%%%&%*%=%-%;%>%,%'%)%!%~%{%O.2.",
"] b+8.A.2@,.[.c.E.H.X.]%^%q+q+q+/%(%%@~@8@0@_%:%<%[%}%|%1%2%3%4%5%6%7%8%9%0%a%b%c%d%e%f%g%h%i%j%..K ",
"k%( o H Z 1._.T.M.l%m%n%q+q+q+o%p%+@1#$@*#r#q%r%s%t%u%v%1%w%x%y%*#z%A%B%C%D%E%F%G%H%I%J%K%L%_.1.T#l@",
"+.k E F X m.'.[.c.M%N%q+q+q+O%P%j+H+T+W+I#%@Q%R%S%T%U%V%%%W%X%Y%Z%6%`% &.&+&@&#&$&%&G.q.K%&&,.m.S.F ",
") } < o v+Z 1.*&=&-&q+q+q+;&>& @C+j+,&S+U+'&)&!&~&{&]&^&/&(&_&:&<&[&}&i+|&1&~+2&3&4&5&6&7&8&9&Z H o ",
"' T ^ E F S.0&a&q+q+q+p+b&N$m@~+Q+c&D+S@6@d&e&f&*@F@7@g&h&i&j&k&0%l&g+e+m&n&m@X.I.o&p&q&r&s&t&S.F E ",
"1 ) } _ o u&v&q+q+q+$#w&x&J.X.P+C@d+5$f+h+l&.@H+I+S+S+S+I+H+.@R+f#f+2+l+!+P+X.I.F.p.b.h.'.*.y+x+n ( ",
"R.y&+.k z&A&B&C&q+D&E&[+1@l%I.c+ +F&{+|+5$C+D@f#i+E+E+E+i+D+D@C+2+|+{+)+`.c+>+F.p.[+}.(.=.Z I p b+] ",
"x.L S ~ G&_+_+H&I&J&;+|.[+p.t.V.]+;#P+5@K&l+Q+2+3+3+e+3+3+k+Q+B+~+5@A+;#]+K.t.M.[+}.;+/.` K F j.^ | ",
"r B R q L&_+_+M&N&../.;+[.f.o.r.L.O&.+;# +m@5@C@K&{+{+{+K&C@5@m@ +;#.+I.L.E.o.f.[.;+/...S.W -+( 4.) ",
"s - g y&P&Q&R&S&x+X ..1.(.<.a.e.p.u.G.I.]+c+;#U@`. +A+ +`.U@;#c+]+>+G.s.p.N.T.<.(.1...S.W n : { 5.).",
"c = Q $.h +.] < o x+S.` C.'.:.|.f.e.p.s.l%V@V.O&J.]+]+]+J.O&V.V@l%f$p.e.f.|._.,.C.` A.W n < ] +.' $.",
"b A P T&L 7.T ] < 3@W K Z *.9.(.<.g.f.d.o.p.E.s.t.F.F.F.t.s.E.p.o.d.D.g.:.(.-.m.Y K F n < ] T h L f ",
"a z U&r ; C 7.T ] : -+F v+2.` C.;.(.:.[.@+D.[+d.e.o.o.o.e.d.[+D.0.[.:.(.9.O.` &.H 8.m _ ] T 7.L f #.",
"0 y V&W&r ; C h +.{ [ E p G K Y ..O.-.'.;+_.<.[.|.|.|.|.|.[.<._.;+,.-.*...y+K W p l / { ! h L X&#.* ",
"9 0 O & W&r ; L ' i 4.^ V -+8.x+K 2.` m.O.1.9.>.'.i.i.'.'.>.9.1.O.m.Z 2.K x+8.-+< ^ Y&i ' !.f #.* & "};
