/* XPM */
static char * lcad_icon2_xpm[] = {
"50 50 732 2",
"  	c None",
". 	c #FFFFFF",
"+ 	c #FBFCFE",
"@ 	c #F7F8FD",
"# 	c #F2F3FD",
"$ 	c #EEEFFC",
"% 	c #EAEBFC",
"& 	c #E6E8FB",
"* 	c #E2E4FA",
"= 	c #DEE1FA",
"- 	c #DADDF9",
"; 	c #D7DAF9",
"> 	c #D4D7F8",
", 	c #D1D4F8",
"' 	c #CED2F8",
") 	c #CBCFF7",
"! 	c #C9CDF7",
"~ 	c #C6CBF7",
"{ 	c #C4C9F6",
"] 	c #C3C8F6",
"^ 	c #C1C6F6",
"/ 	c #C0C5F6",
"( 	c #BFC4F6",
"_ 	c #BFC4F5",
": 	c #BEC4F5",
"< 	c #BEC3F5",
"[ 	c #BFC5F6",
"} 	c #C5C9F6",
"| 	c #C7CBF7",
"1 	c #D1D5F8",
"2 	c #D4D7F9",
"3 	c #EAECFC",
"4 	c #EEF0FC",
"5 	c #F3F4FD",
"6 	c #FCFCFE",
"7 	c #FEFEFF",
"8 	c #FBFBFE",
"9 	c #F6F7FD",
"0 	c #F1F2FD",
"a 	c #EDEEFC",
"b 	c #E8EAFB",
"c 	c #E4E6FB",
"d 	c #E0E2FA",
"e 	c #DCDEFA",
"f 	c #D8DBF9",
"g 	c #D4D8F9",
"h 	c #CDD1F8",
"i 	c #CACEF7",
"j 	c #C7CCF7",
"k 	c #C2C7F6",
"l 	c #BCC1F5",
"m 	c #BAC0F5",
"n 	c #B9BFF5",
"o 	c #B8BEF5",
"p 	c #B7BDF4",
"q 	c #CACFF7",
"r 	c #DCDFFA",
"s 	c #E0E2F9",
"t 	c #EC9FAE",
"u 	c #F47780",
"v 	c #F0D2DD",
"w 	c #F7F7FD",
"x 	c #FEFFFF",
"y 	c #F5F6FD",
"z 	c #ECEDFC",
"A 	c #E7E9FB",
"B 	c #E3E5FB",
"C 	c #D6D9F9",
"D 	c #D2D5F8",
"E 	c #C4C8F6",
"F 	c #BBC1F5",
"G 	c #B5BBF4",
"H 	c #B3BAF4",
"I 	c #B2B8F4",
"J 	c #B1B7F4",
"K 	c #B0B7F4",
"L 	c #B0B6F3",
"M 	c #D2D6F8",
"N 	c #E3AAC0",
"O 	c #FE0404",
"P 	c #FF0000",
"Q 	c #FC3537",
"R 	c #EEECFA",
"S 	c #F6F6FD",
"T 	c #F0F2FD",
"U 	c #EBEDFC",
"V 	c #DDE0FA",
"W 	c #D9DCF9",
"X 	c #D0D4F8",
"Y 	c #CCD0F7",
"Z 	c #C8CCF7",
"` 	c #C0C6F6",
" .	c #BDC3F5",
"..	c #B4BAF4",
"+.	c #AEB5F3",
"@.	c #ACB3F3",
"#.	c #ABB2F3",
"$.	c #AAB1F3",
"%.	c #A9B0F3",
"&.	c #A9B0F2",
"*.	c #C8CDF7",
"=.	c #CFD3EB",
"-.	c #DC8F4F",
";.	c #FF2324",
">.	c #EAE8F8",
",.	c #ECEEFC",
"'.	c #DDDFFA",
").	c #D3D7F8",
"!.	c #B0B7F3",
"~.	c #AEB4F3",
"{.	c #A7AEF2",
"].	c #A5ADF2",
"^.	c #A4ABF2",
"/.	c #A3AAF2",
"(.	c #A2AAF1",
"_.	c #A2A9F1",
":.	c #A1A9F1",
"<.	c #C6CBEE",
"[.	c #C7C641",
"}.	c #C8BE08",
"|.	c #EB601F",
"1.	c #FB3E36",
"2.	c #F1ACB7",
"3.	c #D3D6F8",
"4.	c #CDD2F8",
"5.	c #ADB4EF",
"6.	c #AEB4D1",
"7.	c #A7AEF1",
"8.	c #A4ACF2",
"9.	c #A0A8F1",
"0.	c #9EA6F1",
"a.	c #9DA5F1",
"b.	c #9CA4F1",
"c.	c #9BA3F0",
"d.	c #9AA3F0",
"e.	c #9AA2F0",
"f.	c #A5ACF2",
"g.	c #ADB4F3",
"h.	c #BCC2F0",
"i.	c #C4C44F",
"j.	c #C6C307",
"k.	c #C6C308",
"l.	c #CFCF89",
"m.	c #EDEFFC",
"n.	c #E8E9FB",
"o.	c #CDD1F7",
"p.	c #B6BCF4",
"q.	c #A3ABF2",
"r.	c #99A1F0",
"s.	c #97A0F0",
"t.	c #969EF0",
"u.	c #959DF0",
"v.	c #949DEF",
"w.	c #939CEF",
"x.	c #969FF0",
"y.	c #99A2F0",
"z.	c #9BA4F1",
"A.	c #A1A8F1",
"B.	c #B2B8F1",
"C.	c #C0C060",
"D.	c #C6C52E",
"E.	c #CED1E9",
"F.	c #E9EBFB",
"G.	c #DEE0FA",
"H.	c #A8AFF2",
"I.	c #949DF0",
"J.	c #929BEF",
"K.	c #9099EF",
"L.	c #8F98EF",
"M.	c #8D97EF",
"N.	c #8D96EE",
"O.	c #8C95EE",
"P.	c #8C96EE",
"Q.	c #909AEF",
"R.	c #BABC70",
"S.	c #C5C331",
"T.	c #C4C7DD",
"U.	c #D8DCF9",
"V.	c #E5E7FB",
"W.	c #DFE1FA",
"X.	c #AFB6F3",
"Y.	c #ABB1F3",
"Z.	c #A6ADF2",
"`.	c #979FF0",
" +	c #8E97EF",
".+	c #8B95EE",
"++	c #8993EE",
"@+	c #8891EE",
"#+	c #8690EE",
"$+	c #858FED",
"%+	c #8892EE",
"&+	c #8A93EE",
"*+	c #919AEF",
"=+	c #949CEF",
"-+	c #B4B67F",
";+	c #C2C140",
">+	c #BABFE3",
",+	c #E0E3FA",
"'+	c #DBDDF9",
")+	c #D5D8F9",
"!+	c #CFD3F8",
"~+	c #C9CEF7",
"{+	c #AFB5F3",
"]+	c #98A0F0",
"^+	c #8D96EF",
"/+	c #8791EE",
"(+	c #828DED",
"_+	c #818BED",
":+	c #7F8AED",
"<+	c #7E89EC",
"[+	c #7E88EC",
"}+	c #7D88EC",
"|+	c #838DED",
"1+	c #8A94EE",
"2+	c #ABAF8E",
"3+	c #C6C309",
"4+	c #BDBD4F",
"5+	c #B0B7EA",
"6+	c #D6DAF9",
"7+	c #C5CAF6",
"8+	c #BABFF5",
"9+	c #9FA7F1",
"0+	c #8790EE",
"a+	c #808BED",
"b+	c #7C86EC",
"c+	c #7A85EC",
"d+	c #7883EC",
"e+	c #7782EB",
"f+	c #7681EB",
"g+	c #848EED",
"h+	c #A1A79F",
"i+	c #C5C20C",
"j+	c #B8B95F",
"k+	c #A6ACED",
"l+	c #B4BBF4",
"m+	c #BBC0F5",
"n+	c #959EF0",
"o+	c #7580EB",
"p+	c #737EEB",
"q+	c #717DEB",
"r+	c #707CEA",
"s+	c #6F7BEA",
"t+	c #989EA8",
"u+	c #C4C10E",
"v+	c #AFB176",
"w+	c #9CA3ED",
"x+	c #B5BCF4",
"y+	c #D5D9F9",
"z+	c #BDC2F5",
"A+	c #828CED",
"B+	c #737FEB",
"C+	c #6E7AEA",
"D+	c #6C78EA",
"E+	c #6A76EA",
"F+	c #6975E9",
"G+	c #6875E9",
"H+	c #6874E9",
"I+	c #717CEA",
"J+	c #747FEB",
"K+	c #8C94B6",
"L+	c #C3C012",
"M+	c #C5C20B",
"N+	c #A6AA87",
"O+	c #909AEE",
"P+	c #969EED",
"Q+	c #B1B8F4",
"R+	c #CBD0F7",
"S+	c #B3B9F4",
"T+	c #ADB3F3",
"U+	c #818CED",
"V+	c #7D87EC",
"W+	c #7480EB",
"X+	c #6D79EA",
"Y+	c #6A76E9",
"Z+	c #6774E9",
"`+	c #6572E9",
" @	c #6370E9",
".@	c #626FE8",
"+@	c #616EE8",
"@@	c #8189C0",
"#@	c #C0BE17",
"$@	c #9BA09A",
"%@	c #929AEC",
"&@	c #969FEE",
"*@	c #A9B0F1",
"=@	c #7C87EC",
"-@	c #727EEB",
";@	c #6773E9",
">@	c #606DE8",
",@	c #5E6BE8",
"'@	c #5C6AE8",
")@	c #5B68E7",
"!@	c #5A67E7",
"~@	c #757FC8",
"{@	c #BDBC1C",
"]@	c #C2BF13",
"^@	c #8E95AC",
"/@	c #A5ACF1",
"(@	c #727DEB",
"_@	c #6471E9",
":@	c #5D6AE8",
"<@	c #5765E7",
"[@	c #5563E7",
"}@	c #5462E6",
"|@	c #5361E6",
"1@	c #5261E6",
"2@	c #5A68E7",
"3@	c #6974CF",
"4@	c #B9B824",
"5@	c #BEBC1B",
"6@	c #8189B9",
"7@	c #7783EB",
"8@	c #5E6CE8",
"9@	c #5764E7",
"0@	c #505FE6",
"a@	c #4E5DE6",
"b@	c #4D5BE5",
"c@	c #4C5AE5",
"d@	c #4B5AE5",
"e@	c #515FE6",
"f@	c #5C6AD4",
"g@	c #B5B42A",
"h@	c #B8B725",
"i@	c #727DC6",
"j@	c #6E79EA",
"k@	c #8F99EF",
"l@	c #A8B0F2",
"m@	c #B9BEF5",
"n@	c #7F89ED",
"o@	c #7984EC",
"p@	c #636FE8",
"q@	c #5966E7",
"r@	c #4A59E5",
"s@	c #4756E5",
"t@	c #4655E4",
"u@	c #4454E4",
"v@	c #4453E4",
"w@	c #4757E5",
"x@	c #5260D7",
"y@	c #AFAF32",
"z@	c #B1B130",
"A@	c #6571CF",
"B@	c #98A1F0",
"C@	c #B2B9F4",
"D@	c #8E98EF",
"E@	c #7B86EC",
"F@	c #4F5DE6",
"G@	c #4656E5",
"H@	c #4353E4",
"I@	c #4150E4",
"J@	c #3E4EE3",
"K@	c #3D4DE3",
"L@	c #3F4EE3",
"M@	c #4A58D5",
"N@	c #A8AA39",
"O@	c #ABAB39",
"P@	c #5663D9",
"Q@	c #6976E9",
"R@	c #7581EB",
"S@	c #A2AAF2",
"T@	c #7883EB",
"U@	c #6B77EA",
"V@	c #5F6CE8",
"W@	c #5967E7",
"X@	c #4958E5",
"Y@	c #4554E4",
"Z@	c #4050E4",
"`@	c #3A4AE3",
" #	c #3848E2",
".#	c #3647E2",
"+#	c #3646E2",
"@#	c #4553CE",
"##	c #ACAC30",
"$#	c #A6A73C",
"%#	c #4D5BD6",
"&#	c #5F6DE8",
"*#	c #6672E9",
"=#	c #7F89EC",
"-#	c #8992EE",
";#	c #5B69E7",
">#	c #4F5EE6",
",#	c #3F4FE3",
"'#	c #3B4BE3",
")#	c #3344E2",
"!#	c #3142E1",
"~#	c #2F40E1",
"{#	c #3949D2",
"]#	c #A9AA31",
"^#	c #9FA143",
"/#	c #4150DA",
"(#	c #505EE6",
"_#	c #5663E7",
":#	c #5C69E8",
"<#	c #808AED",
"[#	c #6571E9",
"}#	c #5865E7",
"|#	c #5160E6",
"1#	c #4555E4",
"2#	c #3F4FE4",
"3#	c #3546E2",
"4#	c #3141E1",
"5#	c #2D3EE1",
"6#	c #2A3BE0",
"7#	c #283AE0",
"8#	c #3041D4",
"9#	c #A2A438",
"0#	c #999C47",
"a#	c #3748D8",
"b#	c #5260E6",
"c#	c #5866E7",
"d#	c #4857E5",
"e#	c #4151E4",
"f#	c #3041E1",
"g#	c #2B3CE1",
"h#	c #2738E0",
"i#	c #2335E0",
"j#	c #2638D8",
"k#	c #999C41",
"l#	c #91954E",
"m#	c #2C3DD9",
"n#	c #2B3DE1",
"o#	c #3C4CE3",
"p#	c #4251E4",
"q#	c #A6AEF2",
"r#	c #3142E2",
"s#	c #2638E0",
"t#	c #2133DF",
"u#	c #1F31DC",
"v#	c #8F934B",
"w#	c #8F934C",
"x#	c #2234D9",
"y#	c #2C3DE1",
"z#	c #3243E2",
"A#	c #4C5BE5",
"B#	c #606EE8",
"C#	c #838EED",
"D#	c #4252E4",
"E#	c #3545E2",
"F#	c #2E3FE1",
"G#	c #2839E0",
"H#	c #2134DF",
"I#	c #1D2FDD",
"J#	c #82885A",
"K#	c #8D914B",
"L#	c #182BD7",
"M#	c #172ADE",
"N#	c #1C2FDF",
"O#	c #2234DF",
"P#	c #4352E4",
"Q#	c #6B78EA",
"R#	c #5664E7",
"S#	c #3343E2",
"T#	c #2537E0",
"U#	c #1F32DE",
"V#	c #767D6A",
"W#	c #8B904B",
"X#	c #0F23D7",
"Y#	c #0D21DC",
"Z#	c #1226DD",
"`#	c #182BDE",
" $	c #1F31DF",
".$	c #2C3EE1",
"+$	c #ACB2F3",
"@$	c #3949E3",
"#$	c #6B737B",
"$$	c #C5C208",
"%$	c #949741",
"&$	c #0F22D4",
"*$	c #0419DB",
"=$	c #081DDC",
"-$	c #0F22DD",
";$	c #1629DE",
">$	c #1D2FDF",
",$	c #2436E0",
"'$	c #394AE3",
")$	c #5D6893",
"!$	c #C3C10A",
"~$	c #959842",
"{$	c #1528D5",
"]$	c #071CDC",
"^$	c #0418DB",
"/$	c #081CDC",
"($	c #5561A7",
"_$	c #C0BE0F",
":$	c #9B9D3F",
"<$	c #1F31D5",
"[$	c #1125DD",
"}$	c #0C20DC",
"|$	c #0A1EDC",
"1$	c #1225DD",
"2$	c #1E31DF",
"3$	c #7B85EC",
"4$	c #505DB9",
"5$	c #BCBA16",
"6$	c #A1A339",
"7$	c #2B3CD1",
"8$	c #1B2EDE",
"9$	c #1326DD",
"0$	c #162ADE",
"a$	c #4F5DC7",
"b$	c #B6B520",
"c$	c #A4A539",
"d$	c #3545D2",
"e$	c #2033DF",
"f$	c #192CDE",
"g$	c #2637E0",
"h$	c #A0A7F1",
"i$	c #A7AFF2",
"j$	c #707BEA",
"k$	c #5463E6",
"l$	c #4E5CE6",
"m$	c #515FD4",
"n$	c #B0B02C",
"o$	c #A9AA36",
"p$	c #3E4ED4",
"q$	c #2A3CE1",
"r$	c #2235DF",
"s$	c #2032DF",
"t$	c #2335DF",
"u$	c #8D97EE",
"v$	c #5663DC",
"w$	c #ABAC39",
"x$	c #AFAF2F",
"y$	c #4B59D0",
"z$	c #3445E2",
"A$	c #293BE0",
"B$	c #2537D6",
"C$	c #2333CC",
"D$	c #2739E0",
"E$	c #9CA4F0",
"F$	c #5E6AE2",
"G$	c #A5A749",
"H$	c #B5B427",
"I$	c #5764CD",
"J$	c #3F4DD5",
"K$	c #1A205D",
"L$	c #121848",
"M$	c #2935AB",
"N$	c #151D68",
"O$	c #0F1447",
"P$	c #2E40E1",
"Q$	c #626EE8",
"R$	c #848FED",
"S$	c #6874E2",
"T$	c #A2A456",
"U$	c #BAB920",
"V$	c #626EC8",
"W$	c #1E2566",
"X$	c #181D54",
"Y$	c #3747E2",
"Z$	c #3242D6",
"`$	c #3646DE",
" %	c #3849E0",
".%	c #3B4BDF",
"+%	c #3F4FE0",
"@%	c #5160E1",
"#%	c #6873E3",
"$%	c #707BE6",
"%%	c #7580E5",
"&%	c #757FDA",
"*%	c #AEAF41",
"=%	c #BDBC1B",
"-%	c #6D78C6",
";%	c #13173C",
">%	c #272F7F",
",%	c #2B369D",
"'%	c #060714",
")%	c #2D39AB",
"!%	c #2C37A3",
"~%	c #080A1C",
"{%	c #1D2467",
"]%	c #11153A",
"^%	c #101436",
"/%	c #4A59E4",
"(%	c #4654CF",
"_%	c #242B65",
":%	c #252A5F",
"<%	c #2F3574",
"[%	c #616DE4",
"}%	c #2C3263",
"|%	c #33386B",
"1%	c #1F223E",
"2%	c #272A4A",
"3%	c #C6CAF7",
"4%	c #8B94EE",
"5%	c #818AD6",
"6%	c #B5B535",
"7%	c #7983BF",
"8%	c #5260E1",
"9%	c #080917",
"0%	c #3843A9",
"a%	c #414FD7",
"b%	c #020205",
"c%	c #3E4DD4",
"d%	c #404ED7",
"e%	c #04040C",
"f%	c #3B47BD",
"g%	c #343EA2",
"h%	c #0F122D",
"i%	c #505EE5",
"j%	c #15193B",
"k%	c #3B449A",
"l%	c #272D61",
"m%	c #2C3167",
"n%	c #3D4489",
"o%	c #23274C",
"p%	c #737FEA",
"q%	c #323762",
"r%	c #404577",
"s%	c #8B94CD",
"t%	c #BBBA29",
"u%	c #C1BF16",
"v%	c #858DB7",
"w%	c #6D78EA",
"x%	c #4F5BCC",
"y%	c #4B58D0",
"z%	c #4F5DE2",
"A%	c #414EC3",
"B%	c #0B0D20",
"C%	c #4B59E5",
"D%	c #3B46B3",
"E%	c #070916",
"F%	c #4D5BE3",
"G%	c #2A3179",
"H%	c #22285F",
"I%	c #4F5CD4",
"J%	c #010103",
"K%	c #39418C",
"L%	c #4852AA",
"M%	c #6672E5",
"N%	c #1F2242",
"O%	c #404785",
"P%	c #1E2138",
"Q%	c #5A61A3",
"R%	c #9BA4F0",
"S%	c #9FA6F1",
"T%	c #989FC2",
"U%	c #BFBE20",
"V%	c #9096AF",
"W%	c #7682EB",
"X%	c #6470E9",
"Y%	c #434CA2",
"Z%	c #0B0D1C",
"`%	c #5866E5",
" &	c #434EB4",
".&	c #262C68",
"+&	c #2E367F",
"@&	c #141737",
"#&	c #4D5AD8",
"$&	c #303885",
"%&	c #16193C",
"&&	c #1C204A",
"*&	c #2E3577",
"=&	c #5461D4",
"-&	c #040409",
";&	c #4852A8",
">&	c #545FBC",
",&	c #535DB3",
"'&	c #232749",
")&	c #2D3158",
"!&	c #5E66B3",
"~&	c #07080D",
"{&	c #6971BA",
"]&	c #8B94EA",
"^&	c #A2A7B9",
"/&	c #C2C018",
"(&	c #C4C20D",
"_&	c #999FA8",
":&	c #383F80",
"<&	c #2A2F63",
"[&	c #2E346F",
"}&	c #2A316A",
"|&	c #4650B1",
"1&	c #4550B1",
"2&	c #222859",
"3&	c #3D469F",
"4&	c #3F49A3",
"5&	c #3E479F",
"6&	c #3C4596",
"7&	c #303674",
"8&	c #5661CA",
"9&	c #464FA1",
"0&	c #272C57",
"a&	c #434A8E",
"b&	c #6F7BE5",
"c&	c #626CC2",
"d&	c #2F345B",
"e&	c #595FA3",
"f&	c #414674",
"g&	c #4B4F7F",
"h&	c #8992E2",
"i&	c #ACB0A9",
"j&	c #C4C211",
"k&	c #A2A7A1",
"l&	c #6673E9",
"m&	c #CFD2F8",
"n&	c #BCC2F5",
"o&	c #B5B89A",
"p&	c #C5C30C",
"q&	c #ABAF96",
"r&	c #7A84EC",
"s&	c #BAC0F4",
"t&	c #BDBF82",
"u&	c #B3B68E",
"v&	c #C5C9EF",
"w&	c #C3C368",
"x&	c #BABC80",
"y&	c #8690ED",
"z&	c #DADCF8",
"A&	c #DEA7C0",
"B&	c #DD93A9",
"C&	c #C8C14B",
"D&	c #BFC176",
"E&	c #E89CAE",
"F&	c #FE0304",
"G&	c #E75C0E",
"H&	c #C5C56A",
"I&	c #BEC3F3",
"J&	c #F17580",
"K&	c #FA3D2D",
"L&	c #CBCA6E",
"M&	c #C8CCF3",
"N&	c #EBCEDC",
"O&	c #FD3738",
"P&	c #FF2424",
"Q&	c #F3AEB5",
"R&	c #D2D5F6",
"S&	c #EAE9F9",
"T&	c #EAE7F8",
"U&	c #D8DAF9",
"V&	c #E1E3FA",
"W&	c #C6CAF6",
". . . + @ # $ % & * = - ; > , ' ) ! ~ { ] ^ / ( _ : < : _ [ / ^ ] } | ! ) ' 1 2 ; - = * & 3 4 5 @ 6 ",
". 7 8 9 0 a b c d e f g , h i j { k / < l m n o p p p p p o n m l < / k } j q h 1 g f r s t u v # w ",
"x 8 y 0 z A B = - C D ' q | E ^ < F n p G H I J K L L L K J I H G p n F < ^ { j q ' M C N O P Q R 0 ",
"8 S T U A * V W g X Y Z { `  .m p ..I L +.@.#.$.%.&.&.&.%.$.#.@.+.L I G p m  .^ { *.Y =.-.P P ;.>.,.",
"9 0 z & * '.f ).' i ~ k < m p ..!.~.#.&.{.].^./.(._.:._.(./.^.].{.&.#.+.J ..p m : k <.[.}.|.1.2.* A ",
"# ,.A * '.f 3.4.! { / l o ..!.5.6.7.8.(.9.0.a.b.c.d.e.d.c.b.a.0.9.(.f.{.$.g.J ..o h.i.j.j.k.l.f '.* ",
"m.n.* V f 3.o.*.] ( m p.I +.$.{.q.9.0.c.r.s.t.u.v.w.w.w.v.u.x.s.y.z.0.A.^.{.$.+.B.C.j.j.j.D.E.3.f V ",
"F.B G.f 3.h Z ] < n G !.@.H.8.9.a.e.s.I.J.K.L.M.N.O.O.P.N.M.L.Q.J.u.s.e.a.A.8.H.R.j.j.j.S.T.! ' ).U.",
"V.W.W ).' *.] < n ..X.Y.Z.(.0.e.`.w.K. +.+++@+#+$+$+$+$+$+#+%+&+.+ +*+=+`.d.0.-+k.j.j.;+>+< E ! ' > ",
",+'+)+!+~+{ : n ..{+$.f.9.b.]+v.K.^+&+/+$+(+_+:+<+[+}+[+<+:+_+|+$+/+1+M.*+I.2+3+j.j.4+5+..n : { i !+",
"r 6+, ) 7+( 8+..X.$.8.9+c.x.J. +1+0+|+a+[+b+c+d+e+e+f+e+e+d+c+b+<+_+g+/+1+h+i+j.j.j+k+$.X.l+m / 7+) ",
"W 3.o.| ^ m+G L $.8.9+d.n+*+P.%+g+a+}+c+e+o+p+q+r+s+s+s+r+q+p+o+e+c+}+_+t+u+j.k.v+w+9.f.$.L x+F ^ j ",
"y+!+! ] z+p J #.].9.d.n+K..+/+A+<+c+e+B+r+C+D+E+F+G+H+G+F+E+D+C+I+J+e+K+L+j.M+N+O+P+w+9.Z.#.Q+p z+] ",
"D R+7+( n S+T+{.:.z.t.K..+#+U+V+d+W+r+X+Y+Z+`+ @.@+@+@+@.@ @`+Z+E+X+@@#@j.u+$@#+.+%@&@b.:.{.g.S+n [ ",
"!+*.k F G {+*@/.a.s.*+O.#+_+=@e+-@C+E+;@ @>@,@'@)@!@!@!@)@'@,@+@ @~@{@j.]@^@=@U+/+O.J.s.a.q.&.X.p.l ",
"R+7+: o I #./@9+r.w.N./+A+=@e+(@X+G+_@>@:@!@<@[@}@|@1@|@}@[@<@2@3@4@k.5@6@-@e+V+A+@+M.w.y.9+Z.@.I o ",
"! k F G +.H._.c.n+L.++|+}+7@-@X+H+ @8@2@9@|@0@a@b@c@d@c@b@a@e@f@g@j.h@i@H+j@p+d+[+|+++k@n+b.(.l@{+G ",
"~ [ m@I #.f.0.]+J..+$+n@o@B+X+H+p@,@q@}@0@b@r@s@t@u@v@u@t@w@x@y@j.z@A@,@ @G+C+J+o@:+$+O.J.B@9+].@.C@",
"{ z+p.X.&.(.z.n+D@%+U+E@o+s+F+ @,@q@}@F@r@G@H@I@J@K@K@K@L@M@N@j.O@P@}@q@,@_@Q@s+R@b+A+%+L.n+b.S@&.L ",
"k m+..g.Z.9+r.J..+$+<+T@q+U@`+V@W@}@a@X@Y@Z@K@`@ #.#+#.#@###j.$#%#r@F@}@!@&#*#D+(@d+=#$+O.J.y.9.{.~.",
"/ m@I #.^.a.x.K.-#A+E@o+C+H++@;#[@>#X@v@,#'#.#)#!#~#~#{#]#j.^#/#,#Y@r@(#_#:#.@G+s+R@=@|+++K.`.0.8.#.",
"< p !.&.(.c.I.M.#+<#o@-@U@[#,@}#|#d@1#2#`@3#4#5#6#7#8#9#j.0#a#3#`@Z@t@c@b#c#V@`+D+p+o@a+/+ +u.b./.$.",
"z+p.{+H.A.e.J.O.$+[+e+r+F+.@;#[@a@d#e#'#3#f#g#h#i#j#k#j.l#m#n#f#+#o#p#d#F@[@:#p@Q@r+e+<+$+O.w.e.:.H.",
"l G g.q#9+B@*+1+|+=@o+C+;@>@W@b#d@Y@J@ #r#n#s#t#u#v#j.w#x#t#s#y#z# #L@Y@A#|@!@B#Z+C+R@=@C#1+J.r.9.{.",
"m+..T+].0.s.K.++A+E@J+D+`+8@<@0@X@D#o#E#F#G#H#I#J#j.K#L#M#N#O#7#~#3#o#P#r@e@c#V@*#X+J+E@A+++Q.]+9+Z.",
"m S+@.f.0.x.L.%+_+c+p+Q#_@:@R#F@d#I@`@S#y#T#U#V#j.W#X#Y#Z#`# $T#.$)#`@e#d#>#9@,@[#D+B+c+U+-#K.`.0.].",
"m S++$8.a.x.L.%+_+o@-@U@_@:@_#a@s@Z@@$z#g#i##$$$%$&$*$=$-$;$>$,$g#z#'$I@d#F@R#:@_@Q#p+c+_+%+L.`.0.f.",
"m S++$8.a.x.L.%+a+o@-@U@_@:@[@a@s@Z@@$z#g#)$!$~${$]$^$/$-$;$>$,$g#z#'$Z@d#F@R#:@_@Q#p+c+_+%+L.`.0.f.",
"m S+@.f.0.x.L.%+_+c+p+Q#_@:@R#F@d#I@`@S#($_$:$<$[$}$|$}$1$`#2$T#y#)#`@e#d#>#9@,@[#D+B+c+U+-#K.`.0.f.",
"m+..@.].0.s.K.++A+3$B+D+`+,@<@0@X@D#'#4$5$6$7$8$;$9$[$9$0$8$H#G#F#3#o#P#r@e@}#V@*#X+J+E@A+++K.]+9+Z.",
"F l+g.Z.9+]+*+&+|+=@o+C+;@>@W@b#d@u@a$b$c$d$T#e$N#f$`#f$N#e$g$n#r# #J@Y@c@|@W@>@Z+C+R@=@|+1+*+r.h${.",
"z+p.+.i$9.y.J..+g+}+e+j$F+.@;#k$l$m$n$o$p$~#q$s#r$e$s$e$t$s#q$f#3#'#e#d#a@[@:#.@Q@r+e+[+$+O.w.e.:.H.",
"< p L &.(.c.v.u$#+:+o@(@U@_@,@<@v$w$x$y$'$z$f#y#A$B$C$D$A$.$f#E#`@2#1#d@b#c#8@`+D+-@o@<#/+ +u.E$(.%.",
"/ m@I #.^.a.x.k@-#A+E@o+C+Z++@F$G$H$I$J$K$L$M$z#f#N$O$P$f#S#.#`@,#v@X@>#[@;#Q$H+C+o+b+(+++K.`.a.8.#.",
"^ m+..g.Z.9+B@J..+R$<+T@q+U@S$T$U$V$l$X@W$X$o#@$Y$Z$Z$+#`$ %.%+%u@X@a@@%W@V@`+#%$%%%<+$+O.J.r.9.q#g.",
"] z+p.X.l@_.c.u. +@+_+E@o+&%*%=%-%c#|@a@;%>%P#Z@,%'%)%!%~%{%]%^%/%(%_%:%<%[%}%|%1%2%A+%+D@n+b.(.&.L ",
"3%( o I #.f.0.]+*+4%$+=#5%6%#@7%.@:@c#8%9%0%X@s@a%b%c%d%e%f%g%h%i%j%k%l%m%n%o%p%q%r%$+.+J.]+0.f.+$C@",
"*.k F G +.H.:.c.u.L.%+s%t%u%v%w%H+.@,@x%b%y%z%A%0%B%C%D%E%F%G%H%I%J%K%L%M%N%O%7@P%Q%++L.n+R%_.H.{+G ",
") } < o Q+#.f.S%B@J.T%U%L+V%W%(@X+H+X%Y%Z%`% &.&+&@&#&$&%&[@&&*&=&-&;&>&,&'&)&!&~&{&]&w.r.9+].#.I o ",
"' Z ^ F G {+l@S@b.^&/&(&_&a+E@e+-@j@Y+:&<&[&}&|&1&2&3&4&5&;#6&7&8&9&0&a&b&c&d&e&f&g&h&`.a./.&.{+G F ",
"1 ) } _ o C@@.q#i&j&M+k&1+$+_+=@T@B+j$D+F+l&_@.@+@>@>@>@+@.@_@;@Q@D+r+J+d+=@_+#+.+K.t.z.:.{.T+S+n ( ",
")+m&*.k n&p.!.o&p&3+q&n+k@4%#+A+}+r&f+p+j$X+U@Q@G+Z+Z+Z+G+Y+U@X+r+p+f+c+[+A+0+.+K.n+d.9.].#.J p z+] ",
"U.M Y ~ / s&t&k.k.u&9+e.n+K.O./+g+<#=@o@W%J+-@r+s+s+C+s+s+I+-@W+e+o@V+<#g+%+O.*+n+d.9+8.$.L G m+^ | ",
"r C X q v&w&k.k.x&&.8.9+c.x.J.M.&+y&|+<#}+E@o@T@W%f+f+f+W%T@o@E@}+<#|+#+&+ +J.x.c.9+8.&.{+..8+( 7+) ",
",+z&A&B&C&j.j.D&S++.&.f.9.b.s.w.K.P.++#+g+A+<#=#[+}+V+}+[+=#<#A+g+0+++N.K.=+]+b.9.f.&.{+..n : { ~+!+",
"c E&F&P G&j.H&I&o S+{+$.Z.:.a.e.x.w.K.N.4%-#/+y&$+g+g+g+$+y&/+-#4%u$K.w.x.e.0._.Z.$.X...n < ] *.' ).",
"b J&P P K&L&M&] < m@..L #.{.q.9.b.y.x.v.J.K. +N.O..+.+.+O.N. +K.J.v.`.y.a.9.^.H.@.L G n < ] Z h M f ",
"a N&O&P&Q&R&o.Z ] : 8+G Q+g.$.Z./.9.a.c.B@`.n+v.w.J.J.J.w.v.n+`.r.c.a.9.q.q#$.~.I p.m _ ] Z o.M f '.",
"0 z S&T&= ; D h *.{ [ F p H L @.&.q#^.:.9+0.b.c.e.e.e.e.e.c.b.0.9+_.^.{.&.T+L ..p l / { ! h M U&'.* ",
"9 0 U & V&r ; M ' i 7+^  .8+p.S+L g.$.H.q#f.q.(.:.A.A.:.:.(.q.f.q#H.#.g.L S+p.8+< ^ W&i ' 3.f '.* & "};
