/* XPM */
static char * lcad_icon11_xpm[] = {
"50 50 961 2",
"  	c None",
". 	c #FFFFFF",
"+ 	c #FBFCFE",
"@ 	c #F7F8FD",
"# 	c #F2F3FD",
"$ 	c #EEEFFC",
"% 	c #EAEBFC",
"& 	c #E6E8FB",
"* 	c #E2E4FA",
"= 	c #DEE1FA",
"- 	c #DADDF9",
"; 	c #D7DAF9",
"> 	c #D4D7F8",
", 	c #D1D4F8",
"' 	c #CED2F8",
") 	c #CBCFF7",
"! 	c #C9CDF7",
"~ 	c #C6CBF7",
"{ 	c #C4C9F6",
"] 	c #C3C8F6",
"^ 	c #C1C6F6",
"/ 	c #C0C5F6",
"( 	c #BFC4F6",
"_ 	c #BFC4F5",
": 	c #BEC4F5",
"< 	c #BEC3F5",
"[ 	c #BFC5F6",
"} 	c #C5C9F6",
"| 	c #C7CBF7",
"1 	c #D1D5F8",
"2 	c #D4D7F9",
"3 	c #EAECFC",
"4 	c #EEF0FC",
"5 	c #F3F4FD",
"6 	c #FCFCFE",
"7 	c #FEFEFF",
"8 	c #FBFBFE",
"9 	c #F6F7FD",
"0 	c #F1F2FD",
"a 	c #EDEEFC",
"b 	c #E8EAFB",
"c 	c #E4E6FB",
"d 	c #E0E2FA",
"e 	c #DCDEFA",
"f 	c #D8DBF9",
"g 	c #D4D8F9",
"h 	c #CDD1F8",
"i 	c #CACEF7",
"j 	c #C7CCF7",
"k 	c #C2C7F6",
"l 	c #BCC1F5",
"m 	c #BAC0F5",
"n 	c #B9BFF5",
"o 	c #B8BEF5",
"p 	c #B7BDF4",
"q 	c #CACFF7",
"r 	c #DCDFFA",
"s 	c #E0E3FA",
"t 	c #E9EAFB",
"u 	c #EDEFFC",
"v 	c #F7F7FD",
"w 	c #FEFFFF",
"x 	c #F5F6FD",
"y 	c #ECEDFC",
"z 	c #E7E9FB",
"A 	c #E3E5FB",
"B 	c #D6D9F9",
"C 	c #D2D5F8",
"D 	c #C4C8F6",
"E 	c #BBC1F5",
"F 	c #B5BBF4",
"G 	c #B3BAF4",
"H 	c #B2B8F4",
"I 	c #B1B7F4",
"J 	c #B0B7F4",
"K 	c #B0B6F3",
"L 	c #D2D6F8",
"M 	c #F6F6FD",
"N 	c #F0F2FD",
"O 	c #EBEDFC",
"P 	c #E5A9BC",
"Q 	c #F53C44",
"R 	c #EE5360",
"S 	c #D4C4E6",
"T 	c #CCD0F7",
"U 	c #C8CCF7",
"V 	c #C0C6F6",
"W 	c #BDC3F5",
"X 	c #B4BAF4",
"Y 	c #AEB5F3",
"Z 	c #ACB3F3",
"` 	c #ABB2F3",
" .	c #AAB1F3",
"..	c #A9B0F3",
"+.	c #A9B0F2",
"@.	c #C7B4E0",
"#.	c #EC4150",
"$.	c #F42B33",
"%.	c #DC8EA9",
"&.	c #D0D4F8",
"*.	c #D9DCF9",
"=.	c #DDE0FA",
"-.	c #ECEEFC",
";.	c #DFD2C1",
">.	c #FB1815",
",.	c #FF0000",
"'.	c #EF5A23",
").	c #D6C97B",
"!.	c #C5C7E3",
"~.	c #B0B7F3",
"{.	c #AEB4F3",
"].	c #A7AEF2",
"^.	c #A5ADF2",
"/.	c #A4ABF2",
"(.	c #A3AAF2",
"_.	c #A2AAF1",
":.	c #A2A9F1",
"<.	c #A1A9F1",
"[.	c #E34F65",
"}.	c #FA1317",
"|.	c #CCC7ED",
"1.	c #CFD3F8",
"2.	c #D3D7F8",
"3.	c #DDDCE2",
"4.	c #E0C03A",
"5.	c #FC0F03",
"6.	c #F34D12",
"7.	c #E0C82C",
"8.	c #DDC73D",
"9.	c #C7C2A9",
"0.	c #B5BAF2",
"a.	c #ADB4F3",
"b.	c #A4ACF2",
"c.	c #A0A8F1",
"d.	c #9EA6F1",
"e.	c #9DA5F1",
"f.	c #9CA4F1",
"g.	c #9BA3F0",
"h.	c #9AA3F0",
"i.	c #9AA2F0",
"j.	c #A5ACF2",
"k.	c #B2B7F0",
"l.	c #E74848",
"m.	c #FB0C0F",
"n.	c #C8C0E9",
"o.	c #C9CEF7",
"p.	c #D3D6F8",
"q.	c #DDDFFA",
"r.	c #E8E9FB",
"s.	c #DDE0F8",
"t.	c #DECD64",
"u.	c #E0C832",
"v.	c #E38271",
"w.	c #F81B20",
"x.	c #F12F3A",
"y.	c #C9A8CE",
"z.	c #C2C2CA",
"A.	c #D4C566",
"B.	c #E0C82D",
"C.	c #CDC176",
"D.	c #AAB1F2",
"E.	c #A3ABF2",
"F.	c #99A1F0",
"G.	c #97A0F0",
"H.	c #969EF0",
"I.	c #959DF0",
"J.	c #949DEF",
"K.	c #939CEF",
"L.	c #969FF0",
"M.	c #99A2F0",
"N.	c #9BA4F1",
"O.	c #A1A8F1",
"P.	c #B9A0D0",
"Q.	c #F6310E",
"R.	c #FB1905",
"S.	c #E17A54",
"T.	c #E9EBFB",
"U.	c #DEE0FA",
"V.	c #DBD3A2",
"W.	c #D6CD98",
"X.	c #C4C6F3",
"Y.	c #BFC1F3",
"Z.	c #B5B9DC",
"`.	c #E4D25D",
" +	c #F1E8A9",
".+	c #AEB1D3",
"++	c #949DF0",
"@+	c #929BEF",
"#+	c #9099EF",
"$+	c #8F98EF",
"%+	c #8D97EF",
"&+	c #8D96EE",
"*+	c #8C95EE",
"=+	c #8C96EE",
"-+	c #909AEF",
";+	c #A8AFF2",
">+	c #D9C448",
",+	c #E0C62B",
"'+	c #D5C561",
")+	c #D8DCF9",
"!+	c #E5E7FB",
"~+	c #DFE1FA",
"{+	c #D9DBF3",
"]+	c #DFC93D",
"^+	c #DFC93C",
"/+	c #C9CDEE",
"(+	c #AFB6F3",
"_+	c #ABB1F3",
":+	c #C8BE84",
"<+	c #EFE395",
"[+	c #C3BA8A",
"}+	c #979FF0",
"|+	c #8E97EF",
"1+	c #8B95EE",
"2+	c #8993EE",
"3+	c #8891EE",
"4+	c #8690EE",
"5+	c #858FED",
"6+	c #8892EE",
"7+	c #8A93EE",
"8+	c #919AEF",
"9+	c #949CEF",
"0+	c #D2C25B",
"a+	c #D6C455",
"b+	c #DBDDF9",
"c+	c #D6D6DE",
"d+	c #D8CA77",
"e+	c #AFB5F3",
"f+	c #A8ACDA",
"g+	c #DDC734",
"h+	c #D8C343",
"i+	c #959EEC",
"j+	c #8D96EF",
"k+	c #8791EE",
"l+	c #828DED",
"m+	c #818BED",
"n+	c #7F8AED",
"o+	c #7E89EC",
"p+	c #7E88EC",
"q+	c #7D88EC",
"r+	c #838DED",
"s+	c #8A94EE",
"t+	c #98A1F0",
"u+	c #CEBF64",
"v+	c #D8C548",
"w+	c #D6DAF9",
"x+	c #D5D1C1",
"y+	c #D2C993",
"z+	c #BABFF5",
"A+	c #9FA7F1",
"B+	c #C6BA71",
"C+	c #A1A2C2",
"D+	c #8790EE",
"E+	c #808BED",
"F+	c #7C86EC",
"G+	c #7A85EC",
"H+	c #7883EC",
"I+	c #7782EB",
"J+	c #7681EB",
"K+	c #848EED",
"L+	c #8E98EF",
"M+	c #CBBD67",
"N+	c #DBC63C",
"O+	c #B4BBF4",
"P+	c #C5CAF6",
"Q+	c #D5CDA6",
"R+	c #CEC79F",
"S+	c #BBC0F5",
"T+	c #959EF0",
"U+	c #B8B18E",
"V+	c #B1AB94",
"W+	c #7580EB",
"X+	c #737EEB",
"Y+	c #717DEB",
"Z+	c #707CEA",
"`+	c #6F7BEA",
" @	c #C5B973",
".@	c #DEC732",
"+@	c #A5ACF0",
"@@	c #B5BCF4",
"#@	c #D5D9F9",
"$@	c #D5CA8D",
"%@	c #CBC4A4",
"&@	c #ADA9A0",
"*@	c #B7AE81",
"=@	c #EFF1FD",
"-@	c #8D97EE",
";@	c #737FEB",
">@	c #6E7AEA",
",@	c #6C78EA",
"'@	c #6A76EA",
")@	c #6975E9",
"!@	c #6875E9",
"~@	c #6874E9",
"{@	c #717CEA",
"]@	c #747FEB",
"^@	c #C1B678",
"/@	c #DFC730",
"(@	c #A4AAE6",
"_@	c #A6ADF2",
":@	c #B1B8F4",
"<@	c #BDC2F5",
"[@	c #CBD0F7",
"}@	c #D6C979",
"|@	c #C7C2AC",
"1@	c #B3B9F4",
"2@	c #ADB3F3",
"3@	c #666CA9",
"4@	c #596098",
"5@	c #595862",
"6@	c #BEB26E",
"7@	c #DFE1ED",
"8@	c #282B43",
"9@	c #5B65C7",
"0@	c #343A75",
"a@	c #4C55AE",
"b@	c #6370E9",
"c@	c #626FE8",
"d@	c #616EE8",
"e@	c #6572E9",
"f@	c #6774E9",
"g@	c #6D79EA",
"h@	c #7480EB",
"i@	c #7984EC",
"j@	c #828CED",
"k@	c #BAB182",
"l@	c #DFC82E",
"m@	c #A3A8DC",
"n@	c #C8CDF7",
"o@	c #D6C872",
"p@	c #C2BFB6",
"q@	c #0B0C13",
"r@	c #757ED0",
"s@	c #727392",
"t@	c #BCA825",
"u@	c #877D3F",
"v@	c #5D66BF",
"w@	c #4C55A2",
"x@	c #8F97E7",
"y@	c #1B1B1D",
"z@	c #5964D0",
"A@	c #343B7C",
"B@	c #545FCF",
"C@	c #3F499F",
"D@	c #4B56BF",
"E@	c #394192",
"F@	c #5663DD",
"G@	c #5460D7",
"H@	c #3D469A",
"I@	c #4853B6",
"J@	c #5E6BE8",
"K@	c #6773E9",
"L@	c #6A77EA",
"M@	c #6F7AEA",
"N@	c #7883EB",
"O@	c #7C87EC",
"P@	c #818CED",
"Q@	c #B3AC8F",
"R@	c #A3A6D0",
"S@	c #B6BCF4",
"T@	c #D4C771",
"U@	c #BFBDBC",
"V@	c #585F9B",
"W@	c #131522",
"X@	c #5B5F87",
"Y@	c #A59421",
"Z@	c #2C2810",
"`@	c #515AAF",
" #	c #0B0C18",
".#	c #4851A7",
"+#	c #242852",
"@#	c #5460D1",
"##	c #0E1023",
"$#	c #5765E7",
"%#	c #0F1229",
"&#	c #363F93",
"*#	c #0F1127",
"=#	c #4754C7",
"-#	c #131632",
";#	c #39439C",
">#	c #1D224F",
",#	c #5A68E7",
"'#	c #5D6AE8",
")#	c #6571E9",
"!#	c #6E79EA",
"~#	c #727EEB",
"{#	c #7D87EC",
"]#	c #A4A2A7",
"^#	c #A4A5C5",
"/#	c #D3C671",
"(#	c #BAB9C5",
"_#	c #50568B",
":#	c #7D87E3",
"<#	c #5B63AC",
"[#	c #2B2D43",
"}#	c #746717",
"|#	c #6D631E",
"1#	c #424991",
"2#	c #2B3064",
"3#	c #2B3169",
"4#	c #2F3677",
"5#	c #343C89",
"6#	c #232960",
"7#	c #414DBA",
"8#	c #0B0D1E",
"9#	c #414DC1",
"0#	c #14173A",
"a#	c #313B95",
"b#	c #0E1028",
"c#	c #3B45AE",
"d#	c #424EC1",
"e#	c #515FE6",
"f#	c #5362E6",
"g#	c #5B68E7",
"h#	c #5F6CE8",
"i#	c #9396C3",
"j#	c #A5A6BA",
"k#	c #A8B0F2",
"l#	c #D3C571",
"m#	c #B5B6CE",
"n#	c #98A0F0",
"o#	c #6F77C5",
"p#	c #4D5390",
"q#	c #4B5292",
"r#	c #737ABA",
"s#	c #3C360C",
"t#	c #7F721A",
"u#	c #3B4185",
"v#	c #5B67E0",
"w#	c #394294",
"x#	c #3A449E",
"y#	c #3944A4",
"z#	c #2F388C",
"A#	c #3B47B7",
"B#	c #313B9D",
"C#	c #3B47BF",
"D#	c #242C77",
"E#	c #404ED5",
"F#	c #222A70",
"G#	c #2D3793",
"H#	c #4655E1",
"I#	c #4A59E5",
"J#	c #4D5CE5",
"K#	c #5563E7",
"L#	c #5967E7",
"M#	c #848BD8",
"N#	c #A7A5B0",
"O#	c #B2B9F4",
"P#	c #D2C471",
"Q#	c #B2B4D1",
"R#	c #7B86EC",
"S#	c #7C83CE",
"T#	c #221F07",
"U#	c #D8C235",
"V#	c #606CE6",
"W#	c #5966E7",
"X#	c #5462E6",
"Y#	c #4F5DE6",
"Z#	c #4656E5",
"`#	c #4353E4",
" $	c #3D4DE3",
".$	c #3F4EE3",
"+$	c #4150E4",
"@$	c #4756E5",
"#$	c #4B59E5",
"$$	c #6471E9",
"%$	c #6976E9",
"&$	c #7782E7",
"*$	c #DEC72F",
"=$	c #A8A5A8",
"-$	c #A2AAF2",
";$	c #D1C371",
">$	c #ACB0DE",
",$	c #7B82D1",
"'$	c #D3BF3E",
")$	c #5A68E6",
"!$	c #4E5DE6",
"~$	c #4958E5",
"{$	c #4554E4",
"]$	c #4050E4",
"^$	c #3646E2",
"/$	c #3647E2",
"($	c #3848E2",
"_$	c #3A4AE3",
":$	c #5A67E7",
"<$	c #5F6DE8",
"[$	c #6672E9",
"}$	c #727DEB",
"|$	c #D6C23E",
"1$	c #A6A4A7",
"2$	c #B9BEF5",
"3$	c #D0C271",
"4$	c #AAAEDF",
"5$	c #8992EE",
"6$	c #787FD0",
"7$	c #CBB949",
"8$	c #5663E6",
"9$	c #4F5EE6",
"0$	c #4453E4",
"a$	c #3F4FE3",
"b$	c #3B4BE3",
"c$	c #3344E2",
"d$	c #5C69E7",
"e$	c #E1E3FB",
"f$	c #2F40E1",
"g$	c #3142E1",
"h$	c #3747E2",
"i$	c #505EE6",
"j$	c #5663E7",
"k$	c #5C69E8",
"l$	c #CBBA51",
"m$	c #A9A59F",
"n$	c #CFC271",
"o$	c #A6ACE4",
"p$	c #808AED",
"q$	c #6B77EA",
"r$	c #757DD0",
"s$	c #C3B354",
"t$	c #5160E6",
"u$	c #4B5AE5",
"v$	c #4555E4",
"w$	c #3F4FE4",
"x$	c #3A4AE2",
"y$	c #242F97",
"z$	c #1F298C",
"A$	c #1B2483",
"B$	c #2332BC",
"C$	c #283AE0",
"D$	c #2739E0",
"E$	c #293BDC",
"F$	c #0F154B",
"G$	c #2634B0",
"H$	c #3546E2",
"I$	c #1A215D",
"J$	c #3C48C2",
"K$	c #4C5AE5",
"L$	c #5260E6",
"M$	c #5866E7",
"N$	c #B9AD71",
"O$	c #A9A59B",
"P$	c #CFC171",
"Q$	c #DFC830",
"R$	c #A6ABE2",
"S$	c #737BCF",
"T$	c #B9AC60",
"U$	c #4857E5",
"V$	c #4151E4",
"W$	c #1D2679",
"X$	c #121853",
"Y$	c #2B3CE0",
"Z$	c #2332C8",
"`$	c #19269E",
" %	c #162191",
".%	c #1F32D9",
"+%	c #162295",
"@%	c #2335DE",
"#%	c #070921",
"$%	c #2231B3",
"%%	c #212D9A",
"&%	c #2F3DC3",
"*%	c #202979",
"=%	c #404FDE",
"-%	c #3A46B8",
";%	c #333C94",
">%	c #4F5CD8",
",%	c #4751B2",
"'%	c #414997",
")%	c #5F6BD3",
"!%	c #A7A18D",
"~%	c #A8A49B",
"{%	c #CEC171",
"]%	c #A6AADD",
"^%	c #737ACD",
"/%	c #B0A56B",
"(%	c #3E4EE3",
"_%	c #3848E1",
":%	c #080B23",
"<%	c #1F2DA4",
"[%	c #2638E0",
"}%	c #2133DF",
"|%	c #1928BC",
"1%	c #060B32",
"2%	c #1322A8",
"3%	c #080D3F",
"4%	c #1929BD",
"5%	c #060925",
"6%	c #1D2BAC",
"7%	c #050613",
"8%	c #2735B1",
"9%	c #111642",
"0%	c #2E39A6",
"a%	c #1A2055",
"b%	c #3A45AE",
"c%	c #303883",
"d%	c #1D2149",
"e%	c #454FA6",
"f%	c #272C57",
"g%	c #A39E92",
"h%	c #A9A495",
"i%	c #838EED",
"j%	c #A6AAD8",
"k%	c #8185B5",
"l%	c #A59D79",
"m%	c #4252E4",
"n%	c #3C4CE3",
"o%	c #3545E1",
"p%	c #0B0F34",
"q%	c #1D29A1",
"r%	c #2134DE",
"s%	c #131F93",
"t%	c #0E1981",
"u%	c #091266",
"v%	c #070E50",
"w%	c #0A136B",
"x%	c #0E1880",
"y%	c #1B2263",
"z%	c #525AA1",
"A%	c #11185D",
"B%	c #182070",
"C%	c #1B2473",
"D%	c #171D55",
"E%	c #29328A",
"F%	c #3E4BC0",
"G%	c #232861",
"H%	c #384193",
"I%	c #2C326A",
"J%	c #393F81",
"K%	c #A29E92",
"L%	c #ADA68E",
"M%	c #AAACCC",
"N%	c #6B78EA",
"O%	c #969396",
"P%	c #8E8B96",
"Q%	c #3343E2",
"R%	c #2736C8",
"S%	c #162082",
"T%	c #142092",
"U%	c #1220A5",
"V%	c #0C1A9C",
"W%	c #08158A",
"X%	c #081593",
"Y%	c #091694",
"Z%	c #0E1DA9",
"`%	c #1D2786",
" &	c #91939B",
".&	c #6C77E4",
"+&	c #1D2892",
"@&	c #232F9B",
"#&	c #2F3BB6",
"$&	c #212973",
"%&	c #3B47BB",
"&&	c #4350C4",
"*&	c #38408A",
"=&	c #636FE5",
"-&	c #A29D92",
";&	c #ACA68E",
">&	c #CEC071",
",&	c #AFAEBD",
"'&	c #ACA277",
")&	c #757AB4",
"!&	c #3949E3",
"~&	c #3243E2",
"{&	c #2B3CE1",
"]&	c #2335E0",
"^&	c #1C2FDF",
"/&	c #1528DE",
"(&	c #0E22DD",
"_&	c #081CDC",
":&	c #0419DB",
"<&	c #081DDC",
"[&	c #0F22DD",
"}&	c #1629DE",
"|&	c #2F40E2",
"1&	c #394AE3",
"2&	c #5664E7",
"3&	c #A19D92",
"4&	c #AEA78A",
"5&	c #B4B1AC",
"6&	c #C2B258",
"7&	c #DFC82D",
"8&	c #5C67D4",
"9&	c #071CDC",
"0&	c #0418DB",
"a&	c #1D2FDF",
"b&	c #2436E0",
"c&	c #A8A188",
"d&	c #B2AA82",
"e&	c #BCB697",
"f&	c #6672E6",
"g&	c #D5C03C",
"h&	c #515FE3",
"i&	c #2C3DE1",
"j&	c #2537E0",
"k&	c #1E30DF",
"l&	c #172ADE",
"m&	c #1125DD",
"n&	c #0C20DC",
"o&	c #0A1EDC",
"p&	c #1225DD",
"q&	c #182BDE",
"r&	c #1E31DF",
"s&	c #5764E7",
"t&	c #BBAE69",
"u&	c #AFA888",
"v&	c #C3B983",
"w&	c #7B85EC",
"x&	c #737BD4",
"y&	c #DEC72E",
"z&	c #BDAF5C",
"A&	c #505FE6",
"B&	c #3545E2",
"C&	c #2E3FE1",
"D&	c #1B2EDE",
"E&	c #1326DD",
"F&	c #162ADE",
"G&	c #2134DF",
"H&	c #2839E0",
"I&	c #4352E4",
"J&	c #5865E7",
"K&	c #CEBC4A",
"L&	c #A09EA5",
"M&	c #CDBE66",
"N&	c #878AB7",
"O&	c #A69F7C",
"P&	c #4454E4",
"Q&	c #3748E2",
"R&	c #2033DF",
"S&	c #192CDE",
"T&	c #2637E0",
"U&	c #2B3DE1",
"V&	c #3142E2",
"W&	c #9199EF",
"X&	c #606DE8",
"Y&	c #6975E6",
"Z&	c #DCC632",
"`&	c #9094C5",
" *	c #A0A7F1",
".*	c #CCC07D",
"+*	c #D7C348",
"@*	c #99A2EF",
"#*	c #707BEA",
"$*	c #9D9996",
"%*	c #929099",
"&*	c #5463E6",
"**	c #4E5CE6",
"=*	c #2A3CE1",
"-*	c #2235DF",
";*	c #2032DF",
">*	c #2335DF",
",*	c #3041E1",
"'*	c #DBDEFA",
")*	c #7780D3",
"!*	c #DEC730",
"~*	c #838CE1",
"{*	c #CAC086",
"]*	c #DEC734",
"^*	c #9FA5E6",
"/*	c #B3A974",
"(*	c #8486B1",
"_*	c #3445E2",
":*	c #293BE0",
"<*	c #2738E0",
"[*	c #2C3EE1",
"}*	c #929CEF",
"|*	c #888ABC",
"1*	c #EF6817",
"2*	c #F81E09",
"3*	c #CA3A63",
"4*	c #8A8DE7",
"5*	c #9CA4F0",
"6*	c #C9C090",
"7*	c #ADAEC1",
"8*	c #9FA4D8",
"9*	c #8F99EF",
"0*	c #CAB951",
"a*	c #747CCB",
"b*	c #2E40E1",
"c*	c #5B69E7",
"d*	c #626EE8",
"e*	c #9D6F9C",
"f*	c #FF0200",
"g*	c #B35F9A",
"h*	c #C8C09A",
"i*	c #B5B2AF",
"j*	c #848FED",
"k*	c #7F87DF",
"l*	c #DBC435",
"m*	c #DCC533",
"n*	c #6B75E0",
"o*	c #5361E6",
"p*	c #AC7B87",
"q*	c #B3629D",
"r*	c #A6AEF2",
"s*	c #C7C1A5",
"t*	c #C1B88F",
"u*	c #9597BA",
"v*	c #D1BE45",
"w*	c #6A76E8",
"x*	c #5D6BE8",
"y*	c #4655E4",
"z*	c #747EE2",
"A*	c #C5B55D",
"B*	c #EE6E18",
"C*	c #EE1F1F",
"D*	c #CA416A",
"E*	c #9194E9",
"F*	c #C6CAF7",
"G*	c #C5C1B1",
"H*	c #CCBF6F",
"I*	c #8B94EE",
"J*	c #A6A29F",
"K*	c #C3B55E",
"L*	c #4C5BE5",
"M*	c #636FE8",
"N*	c #7F86CB",
"O*	c #CBBA50",
"P*	c #D2BF49",
"Q*	c #8C93DF",
"R*	c #ACB2F3",
"S*	c #C5C3BC",
"T*	c #D7C44D",
"U*	c #A1A9F0",
"V*	c #AFA990",
"W*	c #B6AC78",
"X*	c #6D78EA",
"Y*	c #4D5CE6",
"Z*	c #6874E8",
"`*	c #9896A3",
" =	c #DAC437",
".=	c #CBBA55",
"+=	c #8C93DA",
"@=	c #9BA4F0",
"#=	c #C6C4C8",
"$=	c #DEC733",
"%=	c #A8ADE8",
"&=	c #9FA6F1",
"*=	c #B7AF85",
"==	c #B4AB80",
"-=	c #7682EB",
";=	c #6470E9",
">=	c #5C6AE8",
",=	c #7C83CA",
"'=	c #B8AD6E",
")=	c #B3AA83",
"!=	c #848EE6",
"~=	c #C6C6D6",
"{=	c #AFB3DA",
"]=	c #B4AE90",
"^=	c #DBC537",
"/=	c #888FD2",
"(=	c #6A76E9",
"_=	c #6471E8",
":=	c #878AB5",
"<=	c #BDB065",
"[=	c #C9B956",
"}=	c #9194C3",
"|=	c #C8C9E2",
"1=	c #B2B6DB",
"2=	c #ACA9AC",
"3=	c #C7B85E",
"4=	c #7D88EA",
"5=	c #6673E9",
"6=	c #6F78D5",
"7=	c #888AB2",
"8=	c #A39D8C",
"9=	c #CEBC48",
"0=	c #CDBB4D",
"a=	c #9B9AAB",
"b=	c #D5D8F9",
"c=	c #CFD2F8",
"d=	c #C9CDEC",
"e=	c #DFC832",
"f=	c #B6B9DB",
"g=	c #99A0E4",
"h=	c #D6C244",
"i=	c #AEA893",
"j=	c #7A84EC",
"k=	c #6D78E2",
"l=	c #8388BD",
"m=	c #9E9A93",
"n=	c #B9AD69",
"o=	c #D3BF41",
"p=	c #DFC72D",
"q=	c #DAC436",
"r=	c #B9AE70",
"s=	c #9294B8",
"t=	c #7B86EA",
"u=	c #CCD0F2",
"v=	c #DFBD3C",
"w=	c #E98E1F",
"x=	c #E4AB25",
"y=	c #BABCDC",
"z=	c #A8A8C0",
"A=	c #A6A4A5",
"B=	c #989ABC",
"C=	c #999AB4",
"D=	c #9E9CA7",
"E=	c #A29F9C",
"F=	c #A9A38D",
"G=	c #B4AA78",
"H=	c #C9B953",
"I=	c #DEC630",
"J=	c #DFC72E",
"K=	c #D8C339",
"L=	c #CBBA4F",
"M=	c #BBAE6C",
"N=	c #A6A191",
"O=	c #8E91BD",
"P=	c #7984E7",
"Q=	c #D3C6E7",
"R=	c #F91D16",
"S=	c #FD0902",
"T=	c #CA94BA",
"U=	c #B8B296",
"V=	c #DFC62D",
"W=	c #E89521",
"X=	c #E89420",
"Y=	c #E0C52B",
"Z=	c #DAC438",
"`=	c #C6B75C",
" -	c #AFA884",
".-	c #9797AF",
"+-	c #8088D9",
"@-	c #DDADC7",
"#-	c #E05E76",
"$-	c #CBD0F8",
"%-	c #F4F5FD",
"&-	c #CDD1F7",
"*-	c #AFB5F4",
"=-	c #DB4E4F",
"--	c #FF0100",
";-	c #EF5A16",
">-	c #CFBE52",
",-	c #B1AB92",
"'-	c #A1A0B0",
")-	c #9095D0",
"!-	c #828BE8",
"~-	c #7F89EC",
"{-	c #DBD2ED",
"]-	c #F7252B",
"^-	c #FD0607",
"/-	c #D394B6",
"(-	c #C0C4F5",
"_-	c #F2151F",
":-	c #F60F13",
"<-	c #949BE6",
"[-	c #8690ED",
"}-	c #DAC9E4",
"|-	c #E28AA0",
"1-	c #D7A7C6",
"2-	c #D94765",
"3-	c #D83E5C",
"4-	c #E1E4FA",
"5-	c #ACADED",
"6-	c #C374A2",
"7-	c #C271A0",
"8-	c #A3A3EA",
"9-	c #E7E8FB",
"0-	c #E1E3FA",
"a-	c #D8DAF9",
"b-	c #C6CAF6",
". . . + @ # $ % & * = - ; > , ' ) ! ~ { ] ^ / ( _ : < : _ [ / ^ ] } | ! ) ' 1 2 ; - = * & 3 4 5 @ 6 ",
". 7 8 9 0 a b c d e f g , h i j { k / < l m n o p p p p p o n m l < / k } j q h 1 g f r s c t u # v ",
"w 8 x 0 y z A = - B C ' q | D ^ < E n p F G H I J K K K J I H G F p n E < ^ { j q ' L B - = A z a 0 ",
"8 M N O z * P Q R S T U { V W m p X H K Y Z `  ...+.+.+... .` Z Y K H F p m W @.#.$.%.&.g *.=.* z -.",
"9 0 y & * ;.>.,.,.'.).!.< m p X ~.{.` +.].^./.(._.:.<.:._.(./.^.].+.` Y I X p [.,.,.}.|.1.2.f =.* z ",
"# -.z * 3.4.5.,.,.6.7.8.9.0.~.a. .].b._.c.d.e.f.g.h.i.h.g.f.e.d.c._.j.]. .a.k.l.,.,.m.n.o.' p.f q.* ",
"u r.* s.t.u.v.w.x.y.z.A.B.C.D.].E.c.d.g.F.G.H.I.J.K.K.K.J.I.L.G.M.N.d.O./.]. .P.Q.R.S.( { ! ' p.f =.",
"T.A U.V.7.W.U X.Y.n F Z.`. +.+c.e.i.G.++@+#+$+%+&+*+*+=+&+%+$+-+@+I.G.i.e.O.b.;+>+,+'+n : D ! ' 2.)+",
"!+~+{+]+^+/+] < n X (+_+:+<+[+i.}+K.#+|+1+2+3+4+5+5+5+5+5+4+6+7+1+|+8+9+}+h.d._.0+7.a+X n < D ! ' > ",
"s b+c+7.d+{ : n X e+ .j.f+g+h+i+#+j+7+k+5+l+m+n+o+p+q+p+o+n+m+r+5+k+s+%+8+++t+f.u+7.v+(+X n : { i 1.",
"r w+x+7.y+( z+X (+ .b.A+g.B+7.C+s+D+r+E+p+F+G+H+I+I+J+I+I+H+G+F+o+m+K+k+s+L+@+}+M+7.N+ .(+O+m / P+) ",
"*.p.Q+7.R+S+F K  .b.A+h.T+U+7.V+&+-+q+G+I+W+X+Y+Z+`+`+`+Z+Y+X+W+I+G+q+m+K+6+&+8+ @7..@+@ .K @@E ^ j ",
"#@1.$@7.%@p I ` ^.c.h.T+#+&@7.*@e.=@-@;@Z+>@,@'@)@!@~@!@)@'@,@>@{@]@I+G+o+r+k+*+^@7./@(@_@` :@p <@] ",
"C [@}@7.|@1@2@].<.N.H.3@4@5@7.6@H+<.7@8@9@0@a@b@c@d@d@d@c@b@e@f@'@g@{@h@i@q+j@4+k@7.l@m@<.].a.1@n [ ",
"1.n@o@7.p@e++.(.e.G.8+q@r@s@t@u@v@w@x@y@z@A@B@C@D@E@F@G@H@I@J@d@b@K@L@M@X+N@O@P@Q@7.7.R@e.E.+.(+S@l ",
"[@P+T@7.U@` j.A+F.K.&+V@W@X@Y@Z@`@ #.#+#@###$#%#&#*#=#-#;#>#$#,#'#d@)#)@!#~#I+{#]#7.7.^#M.A+_@Z H o ",
"! k /#7.(#;+:.g.T+$+_#:#<#[#}#|#1#2#3#4#5#6#7#8#9#0#a#b#c#d#e#f#$#g#h#b@~@!#X+H+i#7.7.j#T+f._.k#e+F ",
"~ [ l#7.m#j.d.n#@+1+o#p#q#r#s#t#u#v#w#x#y#z#A#B#C#D#E#F#G#H#I#J#e#K#L#J@b@!@>@]@M#l@7.N#@+t+A+^.Z O#",
"{ <@P#7.Q#_.N.T+L+6+P@R#W+S#T#U#V#W#X#Y#I#Z#`#H.'# $ $ $.$+$`#@$#$Y#X#W#J@$$%$`+&$*$7.=$$+T+f.-$+.K ",
"k S+;$7.>$A+F.@+1+5+o+N@Y+,$7.'$)$X#!$~${$]$ $i@=@R#^$/$($_$ $+${$I#Y#X#:$<$[$,@}$|$7.1$*+@+M.c.].{.",
"/ 2$3$B.4$e.L.#+5$j@R#W+>@6$7.7$8$9$~$0$a$b$/$c$d$e$0$f$g$c$h$b$a${$I#i$j$k$c@!@`+l$7.m$2+#+}+d.b.` ",
"< p n$.@o$g.++%+4+p$i@~#q$r$7.s$t$u$v$w$x$y$z$A$B$C$D$C$E$F$G$H$_$I$J$K$L$M$h#e@,@N$7.O$k+|+I.f.(. .",
"<@S@P$Q$R$i.@+*+5+p+I+Z+)@S$7.T$!$U$V$b$W$X$Y$Z$`$ %.%+%@%#%$%%%&%*%=%-%;%>%,%'%)%!%7.~%5+*+K.i.<.;+",
"l F {%7.]%t+8+s+r+O@W+>@K@^%7./%u${$(%_%:%<%[%}%|%1%2%3%4%5%6%7%8%9%0%a%b%c%d%e%f%g%7.h%i%s+@+F.c.].",
"S+X {%7.j%G.#+2+j@R#]@,@e@k%7.l%~$m%n%o%p%q%r%s%t%u%v%w%x%y%z%A%B%C%D%E%F%G%H%I%J%K%7.L%j@2+-+n#A+_@",
"m 1@{%7.M%L.$+6+m+G+X+N%$$O%7.P%U$+$_$Q%R%S%T%U%V%W%X%Y%Z%`% &.&+&@&#&$&%&&&5#*&=&-&7.;&P@5$#+}+d.^.",
"m 1@>&7.,&L.$+6+m+i@~#q$$$'&7.)&@$]$!&~&{&]&^&/&(&_&:&<&[&}&j$q.|&~&1&+$U$Y#2&'#$$3&7.4&m+6+$+}+d.j.",
"m 1@>&7.5&L.$+6+E+i@~#q$$$6&7&8&@$]$!&~&{&]&^&/&(&9&0&_&[&}&a&b&{&~&1&]$U$Y#2&'#$$c&7.d&m+6+$+}+d.j.",
"m 1@{%7.e&L.$+6+m+G+X+N%f&g&'$h&U$+$_$Q%i&j&k&l&m&n&o&n&p&q&r&j&i&c$_$V$U$9$s&J@)#t&7.u&P@5$#+}+d.j.",
"S+X {%7.v&G.#+2+j@w&;@,@x&y&z&A&~$m%b$B&C&D$}%D&}&E&m&E&F&D&G&H&C&H$n%I&J@e@J&h#[$K&7.L&j@2+#+n#A+_@",
"E O+{%7.M&n#8+7+r+O@W+>@N&7.O&L$u$P&(%Q&g${&j&R&^&S&q&S&^&R&T&U&V&($(%{$W&c Z+X&Y&Z&7.`&r+s+8+F. *].",
"<@S@.*7.+*@*@+1+K+q+I+#*$*7.%*&***@$V$b$H$f$=*[%-*R&;*R&>*[%=*,*H$b$V$U$9$/.'*[$)*B.!*~*5+*+K.i.<.;+",
"< p {*7.]*^*J.-@4+n+i@}$/*7.(*$#e#u${$a$1&_*,*i&:*D$<*D$:*[*,*B&_$w$v$u$L$L#}*f@|*1*2*3*4*|+I.5*_...",
"/ 2$6*7.7.7*8*9*5$j@R#W+0*7.a*g#K#Y#~$0$a$_$^$~&,*C&C&b*,*Q%/$_$a$0$~$9$K#c*d*~@e*f*,.,.g*#+}+e.b.` ",
"^ S+h*7.7.i*t+@+1+j*o+k*l*m*n*h#L#o***~$0$]$n%!&h$H$H$^$h$1&n%]$P&~$!$f#L#h#e@q$p*f*,.,.q*@+F.c.r*a.",
"] <@s*7.7.t*g.I.|+3+m+u*7.v*w*b@x*M$o*!$I#y*I&]$(% $n% $(%]$I&y*I#!$o*W#J@b@)@z*A*B*C*D*E*T+f._.+.K ",
"F*( G*7.7.H*d.n#8+I*5+J*7.K*g@~@c@'#M$X#i$L*~$@${$0$`#0${$@$~$L*i$X#W#J@M*~@N*O*7.P*Q*1+@+n#d.j.R*O#",
"n@k S*7.7.T*U*g.I.$+6+V*7.W*}$X*~@c@J@:$2&o*i$Y*L*u$#$u$L***i$o*2&,#J@b@Z*`* =7..=+=2+$+T+@=:.;+e+F ",
") } #=7.7.$=%=&=t+@+&+*=7.==-=}$g@~@;=X&>=L#2&X#o*L$L$L$o*K#s&L#>=X&$$,='=B.*$)=!=k+&+K.F.A+^.` H o ",
"' U ~=7.7.7.{=-$f.}+8+]=7.^=/=I+~#!#(=[$M*X&x*c*,#L#W#L#,#c*x*X&_=:=<=*$7.[=}=m+4+*+8+}+e.(.+.e+F E ",
"1 ) |=7.7.7.1=r*O.g.H.2=7.7.3=4=N@;@#*,@)@5=$$c@d@X&X&X&d@6=7=8=9=7.7.0=a=4=m+4+1+#+H.N.<.].2@1@n ( ",
"b=c=d=e=7.7.f=` j. *i.g=h=7.7.i=q+j=J+X+#*g@q$%$k=l=m=n=o=p=7.7.q=r=s=t=p+j@D+1+#+T+h.c.^.` I p <@] ",
")+L u=v=w=x=y=(+ .b.A+i.z=!*7.!*A=B=C=D=E=F=G=H=I=7.J=K=L=M=N=O=P=i@{#p$K+6+*+8+T+h.A+b. .K F S+^ | ",
"r B Q=R=,.S=T=X Y +.b.A+g.U=V=W=X=Y=7.7.7.B.Z=`= -.-+-J+-=N@i@R#q+p$r+4+7+|+@+L.g.A+b.+.e+X z+( P+) ",
"s - @-,.,.,.#-$-%-%-&-g # *-=-----;->-,-'-)-!-~-p+q+{#q+p+~-p$j@K+D+2+&+#+9+n#f.c.j.+.e+X n : { o.1.",
"c = {-]-,.^-/-(-V l H *-J _._-,.,.:-<-&+I*5$k+[-5+K+K+K+5+[-k+5$I*-@#+K.L.i.d.:._@ .(+X n < ] n@' 2.",
"b A =.}-|-1-U ] < 2$X K ` ].2-,.,.3-L.J.@+#+|+&+*+1+1+1+*+&+|+#+@+J.}+M.e.c./.;+Z K F n < ] U h L f ",
"a z 4-r ; C &-U ] : z+F :@a.5-6-7-8-e.g.t+}+T+J.K.@+@+@+K.J.T+}+F.g.e.c.E.r* .{.H S@m _ ] U &-L f q.",
"0 y 9-0-r ; C h n@{ [ E p G K Z +.r*/.<.A+d.f.g.i.i.i.i.i.g.f.d.A+:./.].+.2@K X p l / { ! h L a-q.* ",
"9 0 O & 0-r ; L ' i P+^ W z+S@1@K a. .;+r*j.E._.<.O.O.<.<._.E.j.r*;+` a.K 1@S@z+< ^ b-i ' p.f q.* & "};
